<svg width="185" height="41" viewBox="0 0 185 41" fill="none" xmlns="http://www.w3.org/2000/svg">
<path d="M49.737 39.626C49.7253 39.5213 49.6733 39.4583 49.6214 39.4861C49.5696 39.5139 49.4458 39.4222 49.3464 39.2824C49.2414 39.1348 49.0936 39.0324 48.9942 39.0383C48.8588 39.0465 48.8454 39.0253 48.9305 38.9371C49.0131 38.8515 49.0065 38.82 48.9022 38.8012C48.7953 38.782 48.7959 38.7459 48.9048 38.6318C49.0102 38.5213 49.0119 38.4811 48.9117 38.4632C48.8395 38.4502 48.7766 38.4069 48.7722 38.3669C48.7677 38.327 48.8119 38.3121 48.8704 38.3338C48.9313 38.3563 48.9451 38.3254 48.9028 38.2613C48.8622 38.1998 48.8816 38.1463 48.9459 38.1425C49.0311 38.1374 49.0286 38.0969 48.9367 37.9933C48.8353 37.879 48.8422 37.8491 48.9717 37.8414C49.102 37.8335 49.1062 37.814 48.9936 37.7396C48.8496 37.6445 48.6024 37.7521 48.6514 37.8887C48.6641 37.9239 48.6221 37.9706 48.5582 37.9922C48.4817 38.0181 48.4558 37.974 48.4827 37.8633C48.5053 37.7707 48.4839 37.7153 48.4351 37.7401C48.3865 37.7649 48.2518 37.7661 48.1358 37.7428C47.9686 37.7092 48.0138 37.6838 48.354 37.6202C48.6216 37.5701 48.7786 37.5004 48.7714 37.4349C48.7649 37.3771 48.8492 37.3245 48.9586 37.3179C49.068 37.3113 49.2133 37.2367 49.2814 37.1522C49.4035 37.0006 49.9032 36.7738 50.0753 36.7918C50.124 36.7969 50.4189 36.7376 50.7306 36.6602C51.0423 36.5827 51.5828 36.4784 51.9315 36.4284C52.2804 36.3784 52.588 36.3058 52.6153 36.267C52.6426 36.2282 52.7657 36.1897 52.889 36.1814C53.0123 36.1731 53.3785 36.0507 53.7029 35.9095C54.0272 35.7683 54.3704 35.6473 54.4655 35.6407C54.5606 35.634 54.6632 35.5934 54.6934 35.5504C54.7237 35.5074 54.6964 35.4753 54.6328 35.4792C54.491 35.4877 54.5051 35.1519 54.6473 35.1361C54.7032 35.1298 54.9463 35.0706 55.1875 35.0044C55.4286 34.9382 55.7408 34.8978 55.8806 34.9146C56.021 34.9314 56.2784 34.9036 56.4529 34.8528C56.6269 34.802 57.0229 34.7084 57.3317 34.6449C58.1803 34.4705 58.6294 34.3404 58.6216 34.2712C58.6138 34.1994 53.3676 34.5649 52.0767 34.7271C51.3966 34.8125 51.1339 34.8161 50.8419 34.7439C50.6379 34.6934 50.4474 34.6487 50.4186 34.6445C50.3898 34.6403 50.2271 34.6045 50.057 34.565C49.8869 34.5255 49.6774 34.5181 49.5914 34.5486C49.5054 34.579 48.1464 34.6934 46.5714 34.8028C44.9966 34.9122 43.5044 35.0474 43.2556 35.1034C43.0067 35.1593 42.2554 35.2772 41.586 35.3652C40.9166 35.4532 40.2846 35.5648 40.1816 35.6132C40.0785 35.6616 39.7674 35.6989 39.4903 35.6963C39.2131 35.6936 38.9648 35.722 38.9384 35.7596C38.912 35.7971 38.8454 35.8111 38.7904 35.7907C38.7354 35.7703 38.6943 35.7891 38.6991 35.8324C38.7039 35.8758 38.6726 35.9066 38.6294 35.9011C38.4555 35.8785 37.5916 36.0667 37.5981 36.1257C37.6062 36.1983 36.8464 36.3654 36.5509 36.356C36.4423 36.3525 36.2743 36.4224 36.1777 36.5113C36.0812 36.6002 35.9238 36.6816 35.8279 36.6922C35.7321 36.7028 35.3781 36.7353 35.0413 36.7644C34.7044 36.7935 34.2489 36.8671 34.0289 36.9279C33.8089 36.9886 33.457 37.0676 33.2469 37.1034C33.0367 37.1392 32.893 37.1963 32.9276 37.2304C33.0354 37.3367 32.8111 37.3797 31.0442 37.5917C30.9503 37.6029 30.8853 37.6434 30.8996 37.6815C30.914 37.7197 30.8358 37.7761 30.7259 37.807C30.616 37.8378 30.4161 37.9275 30.2818 38.0063C30.1061 38.1094 29.7239 38.182 28.9193 38.265C28.3043 38.3284 27.6942 38.3832 27.5636 38.3867C27.4329 38.3903 27.1905 38.4548 27.0248 38.5302C26.8537 38.608 26.693 38.6394 26.6528 38.6028C26.554 38.5129 26.1835 38.4432 26.2727 38.5312C26.3669 38.6241 26.2667 38.6251 25.9821 38.5341C25.4078 38.3504 22.8217 38.6715 22.5799 38.9565C22.5051 39.0448 22.5021 39.1015 22.5717 39.1138C22.6315 39.1244 22.6837 39.1627 22.6878 39.1989C22.6919 39.2352 22.6287 39.2507 22.5475 39.2335C22.4663 39.2162 22.3734 39.2397 22.3411 39.2857C22.2548 39.4084 22.8664 39.3546 23.1838 39.2116C23.3296 39.1459 23.6534 39.0551 23.9034 39.0098C24.1535 38.9644 24.4374 38.9116 24.5345 38.8924C24.6315 38.8732 24.7158 38.9014 24.7218 38.9549C24.7295 39.0239 24.8592 39.0375 25.165 39.0015C25.4992 38.9622 25.5581 38.9704 25.4245 39.0379C25.3295 39.0859 25.2778 39.1509 25.3096 39.1824C25.3784 39.2502 24.814 39.3564 23.7126 39.483C23.0942 39.554 22.8897 39.5529 22.8118 39.4779C22.7388 39.4075 22.7136 39.4065 22.7201 39.474C22.733 39.6111 22.1151 39.6259 21.8786 39.4942C21.768 39.4327 21.6812 39.414 21.6855 39.4527C21.6902 39.4954 21.3588 39.5229 20.8431 39.5227C20.3754 39.5224 19.6452 39.5245 19.2203 39.5273C18.7956 39.5302 18.2923 39.5026 18.1021 39.4661C17.9118 39.4297 17.6433 39.4227 17.5053 39.4505C17.3673 39.4785 17.2216 39.4688 17.1814 39.4292C17.1365 39.3849 17.1626 39.3773 17.2491 39.4093C17.3366 39.4418 17.3617 39.4338 17.3154 39.3881C17.2282 39.3021 16.7308 39.2493 16.1508 39.2645C15.8087 39.2735 15.735 39.2486 15.7109 39.1161C15.685 38.9738 15.753 38.9465 16.3521 38.8593C16.7208 38.8056 17.1383 38.762 17.2801 38.7624L17.5378 38.7631L17.2542 38.6721C16.7624 38.5143 16.2943 38.4634 15.3923 38.4695C14.9109 38.4728 14.2115 38.4388 13.8381 38.3939C12.9791 38.2907 10.057 38.4544 9.94628 38.6118C9.90819 38.666 9.82014 38.6892 9.75055 38.6635C9.57099 38.5969 7.68415 38.6842 7.75664 38.7557C7.82444 38.8226 7.80928 38.8247 6.47337 38.9347C5.53048 39.0123 5.13433 39.0616 3.73347 39.2762C3.09471 39.374 2.71362 39.3628 2.32806 39.235C2.16659 39.1814 2.1959 39.1437 2.54888 38.9507C2.83359 38.795 3.19113 38.692 3.73875 38.608C4.67331 38.4645 5.56203 38.3012 6.19922 38.1557C6.58038 38.0686 6.65343 38.0246 6.60018 37.914C6.56192 37.8346 6.47762 37.7988 6.39601 37.8274C6.31954 37.8541 6.25286 37.8389 6.24783 37.7936C6.24274 37.7483 6.31921 37.7059 6.41766 37.6994C6.57065 37.6892 6.57316 37.6783 6.43511 37.6246C6.33291 37.5848 6.31932 37.5585 6.39813 37.5531C6.46683 37.5482 6.4906 37.4958 6.45111 37.4359C6.40127 37.3605 6.4953 37.2815 6.76033 37.1762L7.14121 37.0248L6.13595 37.0401C5.58306 37.0484 4.8556 37.0752 4.51939 37.0996C4.18318 37.1239 3.90763 37.1397 3.90706 37.1346C3.90649 37.1295 3.98956 37.0425 4.09165 36.9414C4.19375 36.8403 4.27981 36.7802 4.28289 36.8079C4.28597 36.8355 4.38673 36.8026 4.50679 36.7345C4.62686 36.6665 5.06232 36.5519 5.47449 36.4798C5.88669 36.4076 6.40115 36.2909 6.61775 36.2203C6.83439 36.1497 7.17847 36.0808 7.38236 36.0671C7.95203 36.0288 9.35792 35.6711 8.93984 35.6709C8.88788 35.6708 8.75156 35.6609 8.63683 35.6489C8.5221 35.6368 8.37101 35.6214 8.30103 35.6145C8.06262 35.5913 8.03963 35.5198 8.2503 35.4569C8.36592 35.4224 8.57188 35.3059 8.70798 35.1979C8.84413 35.0899 9.05832 34.9954 9.18396 34.9879C9.30959 34.9804 9.45984 34.925 9.51779 34.8649C9.60444 34.7751 9.51701 34.7532 9.02722 34.7422C8.69942 34.7348 8.29124 34.7208 8.12007 34.7111C7.71296 34.6881 6.11464 34.791 6.01026 34.8469C5.86952 34.9224 4.70247 35.024 4.69549 34.9615C4.69183 34.9286 4.75329 34.8558 4.83207 34.7998C4.91085 34.7438 4.97142 34.663 4.96666 34.6203C4.96189 34.5776 4.93014 34.5665 4.89609 34.5956C4.86204 34.6248 4.76821 34.615 4.68757 34.574C4.60638 34.5327 4.54448 34.5311 4.54887 34.5705C4.55323 34.6096 4.48769 34.6458 4.40323 34.6508C4.15736 34.6656 4.21593 34.5819 4.54168 34.4529C4.90801 34.3078 4.84789 34.2598 4.22455 34.1997C3.65592 34.1448 3.53395 34.0126 3.9215 33.8712C4.32258 33.7249 6.25292 33.4503 7.3662 33.3812C7.88804 33.3488 8.43472 33.2927 8.58106 33.2564L8.8471 33.1906L8.53608 33.0347C8.36502 32.949 8.14703 32.8823 8.05166 32.8865C7.80861 32.8974 7.72168 32.7835 7.8321 32.5989C7.94879 32.404 8.8019 32.015 9.15968 31.9934C9.31054 31.9844 9.39417 31.947 9.3535 31.9069C9.31412 31.8681 9.19744 31.8414 9.09418 31.8476C8.92071 31.858 8.7072 31.6839 8.73063 31.5511C8.75452 31.4162 7.14675 31.662 7.0266 31.8117C6.9348 31.926 4.35209 32.3654 4.0874 32.3117L3.83534 32.2606L4.06308 32.1537C4.18833 32.0949 5.02421 31.9121 5.92059 31.7475C7.56086 31.4462 7.94969 31.2797 6.86013 31.3451C6.52539 31.3652 6.21264 31.3412 6.10586 31.2872C5.95415 31.2105 5.75697 31.22 4.93578 31.3434C3.42576 31.5704 2.54979 31.7165 2.3471 31.7755C2.21282 31.8145 2.16894 31.7949 2.18443 31.7029C2.20699 31.5688 2.50648 31.3951 2.98866 31.2364C3.4037 31.0998 3.12713 31.018 2.58813 31.1179C2.35444 31.1612 1.95857 31.2327 1.7084 31.2767L1.25356 31.3568L1.60767 31.0664C1.80243 30.9066 1.96045 30.764 1.95882 30.7494C1.95718 30.7347 1.66757 30.7164 1.31521 30.7087C0.482111 30.6904 0.021649 30.5487 0.00014812 30.3041C-0.0112028 30.1751 0.631829 29.9625 1.24442 29.8927C1.49661 29.864 2.06557 29.7652 2.50877 29.6731C2.95197 29.581 3.63545 29.4713 4.02761 29.4292C4.41977 29.3871 5.01305 29.3008 5.346 29.2375C7.41391 28.8438 7.8787 28.7495 7.9649 28.7064C8.01787 28.6799 7.85045 28.6341 7.59286 28.6046C7.33358 28.5749 7.11957 28.5073 7.11358 28.4532C7.0996 28.328 8.10111 27.994 9.02403 27.8162C9.47299 27.7297 9.80022 27.6214 9.90069 27.5262C9.99064 27.4409 10.3222 27.3203 10.6559 27.2515C11.4129 27.0953 11.3805 26.9922 10.5196 26.818C10.335 26.7806 10.2005 26.71 10.2205 26.6612C10.2663 26.55 10.7225 26.3572 10.9758 26.342C11.0805 26.3357 11.134 26.2988 11.0946 26.2599C11.0553 26.2211 10.6802 26.2099 10.2613 26.2351C9.57099 26.2765 9.28532 26.2171 9.60808 26.0992C9.89655 25.9939 8.40776 26.131 7.68113 26.2766C6.77622 26.4581 6.27032 26.4353 6.24548 26.2119C6.23396 26.1089 6.48635 25.9577 7.19368 25.6435C7.86007 25.3475 8.11386 25.1984 8.01586 25.1603C7.82975 25.0879 7.99488 24.9926 8.66312 24.7865C9.60634 24.4957 10.3317 24.0596 10.2076 23.8579C10.1229 23.7202 10.492 23.6201 12.0344 23.3627C12.801 23.2348 13.5647 23.07 13.7315 22.9965C13.8982 22.9231 14.2582 22.8298 14.5314 22.7892C15.2847 22.6773 16.7104 22.3223 16.9252 22.1931C17.03 22.1301 17.255 22.0679 17.4251 22.0548C17.5952 22.0417 17.8234 21.9966 17.9321 21.9547C18.0894 21.894 18.046 21.8812 17.719 21.8921C16.8438 21.9211 16.3738 21.8864 16.2458 21.7833C16.1585 21.7128 16.0325 21.6972 15.88 21.7377C15.6799 21.7908 15.6714 21.7864 15.8193 21.7062C15.9138 21.6549 16.0719 21.6177 16.1708 21.6234C16.2696 21.6292 16.4093 21.6021 16.4812 21.563C16.5585 21.521 16.7195 21.5259 16.8754 21.5751C17.0807 21.6398 17.1794 21.6361 17.3227 21.5586C17.4391 21.4956 17.5323 21.4844 17.5767 21.5282C17.6152 21.5662 17.909 21.5828 18.2297 21.565C18.5503 21.5472 18.9331 21.5736 19.0803 21.6236C19.4013 21.7326 19.5051 21.7358 19.494 21.6362C19.4895 21.5953 19.4139 21.5661 19.3261 21.5714C19.2383 21.5767 19.1884 21.5498 19.2153 21.5117C19.2421 21.4736 19.1655 21.4298 19.045 21.4145C18.9247 21.3992 18.8412 21.3414 18.8597 21.2861C18.8938 21.184 19.3458 21.0982 20.7547 20.9265C22.0275 20.7715 22.3793 20.708 22.3712 20.635C22.3669 20.5966 22.2943 20.5693 22.2098 20.5743C22.1245 20.5795 22.0489 20.5175 22.0397 20.4348C22.0275 20.3257 22.0913 20.2819 22.279 20.2706C22.5735 20.2529 22.611 20.1353 22.3334 20.1C22.2305 20.0869 21.7125 20.1203 21.1822 20.1741C19.6376 20.3309 19.0146 20.347 18.6758 20.2388C18.5037 20.1839 18.3348 20.154 18.3006 20.1724C18.2663 20.1907 18.2467 20.1104 18.2572 19.9938C18.28 19.7394 18.1316 19.7088 17.0781 19.7509C16.4476 19.7761 16.3975 19.7678 16.607 19.6723C16.9516 19.5152 18.2493 19.2416 19.0323 19.1609C19.4325 19.1196 19.8055 19.0357 19.9344 18.9579C20.2088 18.7924 20.3838 18.7801 20.5964 18.9112C20.692 18.9701 20.9437 19.002 21.19 18.9862C21.9484 18.9378 24.7561 18.5586 25.1314 18.4539C25.4818 18.3561 25.4913 18.3431 25.3884 18.1036C25.3235 17.9527 25.3198 17.8222 25.3789 17.7716C25.446 17.7141 25.4366 17.6588 25.3489 17.5936C25.0804 17.3941 25.3866 17.3311 26.8846 17.2774C28.0486 17.2358 28.409 17.1987 28.6348 17.0972C28.8737 16.9899 29.9832 16.795 30.7472 16.7262C30.8594 16.7161 31.1783 16.6641 31.4557 16.6106L31.9602 16.5133L31.4934 16.4869C31.2368 16.4723 30.4758 16.5107 29.8025 16.5721C29.1291 16.6335 28.1631 16.7043 27.6557 16.7293C27.1484 16.7542 26.1635 16.8638 25.4671 16.9727C24.0891 17.1882 22.6633 17.3667 22.0447 17.4012C21.829 17.4131 21.6269 17.4539 21.5955 17.4918C21.5641 17.5296 21.3951 17.5735 21.2199 17.5893C21.0447 17.6051 20.9044 17.6457 20.9082 17.6796C20.912 17.7135 20.809 17.7262 20.6794 17.7079C20.495 17.6819 20.4791 17.6897 20.6061 17.7436C20.746 17.803 20.7437 17.8142 20.5894 17.8244C20.4909 17.831 20.4145 17.8736 20.4196 17.9193C20.4253 17.9702 20.3263 17.9617 20.1631 17.8972C19.868 17.7806 19.7428 17.767 19.8391 17.8621C19.874 17.8965 19.8129 17.9476 19.7033 17.9756C19.5893 18.0048 19.4999 17.9897 19.4944 17.9405C19.4888 17.8907 19.3232 17.8642 19.1009 17.8775C18.8569 17.8922 18.7294 17.9326 18.751 17.9885C18.7743 18.0491 18.6659 18.0727 18.4032 18.0641C17.9725 18.0501 17.5328 17.9019 17.5151 17.765C17.5075 17.7065 17.4723 17.716 17.4166 17.7914C17.3492 17.8826 17.3242 17.8621 17.3049 17.6996C17.273 17.4313 17.4162 17.1923 17.6159 17.1803C17.7017 17.1751 17.7397 17.1391 17.7003 17.1003C17.661 17.0615 17.7118 17.0221 17.8133 17.0129C18.1495 16.9823 18.3587 16.9243 18.5748 16.802C18.7684 16.6923 19.2532 16.7009 19.2658 16.8143C19.2681 16.8348 19.2064 16.838 19.1286 16.8214C19.0508 16.8049 18.9287 16.8535 18.8572 16.9294C18.7452 17.0482 18.7463 17.0573 18.8656 16.9949C18.9719 16.9392 18.9907 16.955 18.947 17.0632C18.913 17.1475 18.9457 17.2252 19.0284 17.2567C19.2343 17.3353 19.3973 17.3084 19.2089 17.227C19.0867 17.1741 19.1449 17.1608 19.4441 17.1729C19.664 17.1819 19.9211 17.1461 20.0194 17.0929C20.1539 17.0201 20.236 17.0165 20.3571 17.0781C20.4861 17.1438 20.5296 17.1331 20.5818 17.0227C20.6173 16.9474 20.6363 16.8612 20.624 16.831C20.6116 16.8009 20.6667 16.7723 20.7465 16.7675C20.8263 16.7627 20.9049 16.7194 20.9211 16.6713C20.9374 16.6232 21.0847 16.5653 21.2484 16.5426C21.4122 16.5199 21.5919 16.447 21.6478 16.3808C21.7038 16.3144 21.7896 16.2825 21.8386 16.3098C21.8876 16.3371 21.8922 16.3027 21.8489 16.2332C21.7519 16.0777 21.946 16.0509 22.0482 16.2057C22.1132 16.3041 22.1422 16.301 22.2997 16.179C22.4679 16.0488 22.4787 16.049 22.4951 16.1827C22.5096 16.3014 22.5265 16.3053 22.5992 16.2069C22.7287 16.0316 22.7035 15.9966 22.4239 15.9631C22.2466 15.9418 22.169 15.8847 22.1681 15.7749C22.1668 15.6001 22.5089 15.4488 22.9217 15.4417C23.3065 15.435 23.634 15.319 23.62 15.1941C23.6111 15.1138 23.7102 15.0841 23.994 15.0821C24.4091 15.0792 25.0939 14.9538 25.3322 14.837C25.4507 14.7791 25.4393 14.7664 25.2735 14.7717C25.1605 14.7753 24.836 14.7764 24.5523 14.7741C23.6752 14.7671 22.5174 14.8385 22.1066 14.925C21.8245 14.9843 21.7318 14.9827 21.7763 14.9193C21.8146 14.8649 21.785 14.8498 21.699 14.8799C21.6175 14.9085 21.474 14.8485 21.3526 14.7352C21.2044 14.5968 21.1796 14.5311 21.2656 14.5044C21.3463 14.4793 21.3213 14.4362 21.1894 14.3729C21.0105 14.2871 21.0207 14.2806 21.3045 14.2991C21.4758 14.3103 21.5562 14.3032 21.4832 14.2833C21.214 14.21 21.3466 14.11 21.7446 14.0861C22.003 14.0706 22.1584 14.0958 22.166 14.1545C22.1747 14.2228 22.1982 14.2193 22.2546 14.1411C22.3029 14.0744 22.3585 14.0616 22.4042 14.1068C22.482 14.1835 22.6116 14.1693 22.9205 14.0506C23.0264 14.0098 23.2642 13.9652 23.449 13.9513C23.8726 13.9196 23.9898 13.7266 23.5701 13.7518C23.4042 13.7618 23.2463 13.7226 23.2058 13.6614C23.1577 13.5884 23.1984 13.5495 23.3309 13.5415C23.439 13.535 23.5595 13.4857 23.5989 13.4318C23.7014 13.2914 24.101 13.1083 24.2138 13.1501C24.2665 13.1696 24.3346 13.1498 24.3654 13.1061C24.3961 13.0624 24.5484 13.019 24.7037 13.0097C24.8591 13.0004 25.2304 12.9233 25.5288 12.8385C25.9999 12.7046 26.0405 12.6779 25.8374 12.636C25.7087 12.6095 24.8512 12.6375 23.932 12.6983C23.0128 12.7591 22.1975 12.7854 22.1202 12.7567C22.0402 12.7271 21.9536 12.7419 21.9189 12.7913C21.8474 12.8929 18.6732 13.1574 18.5837 13.0691C18.5523 13.0381 18.4573 13.0369 18.3726 13.0665C18.2683 13.103 18.2577 13.1348 18.3394 13.1651C18.4058 13.1897 18.3201 13.2183 18.149 13.2286C17.9779 13.2388 17.8343 13.2152 17.83 13.1761C17.8256 13.137 17.7565 13.1516 17.6765 13.2085C17.5964 13.2654 17.4955 13.2902 17.4523 13.2635C17.409 13.2368 17.481 13.1447 17.6123 13.0589L17.851 12.9029L17.599 12.954C17.3783 12.9988 17.3715 12.9949 17.544 12.9221C17.8279 12.8025 18.3143 12.7839 18.6115 12.8814C18.9012 12.9763 19.2441 12.9187 19.2283 12.7777C19.2211 12.7128 19.42 12.6714 19.8831 12.6417C20.3004 12.6149 20.5516 12.6294 20.5573 12.6807C20.5624 12.7257 20.6179 12.7042 20.6808 12.6329C20.7635 12.5393 21.0354 12.4755 21.6601 12.4033C22.1357 12.3483 22.8104 12.2386 23.1594 12.1595C23.5084 12.0804 23.9404 12.0037 24.1195 11.989C24.2986 11.9743 24.6703 11.9027 24.9456 11.83C25.415 11.7059 25.3604 11.7053 24.0687 11.8212C23.311 11.8892 22.622 11.9495 22.5377 11.9552C22.4533 11.961 21.4025 12.1036 20.2026 12.2723C19.0028 12.4409 17.6929 12.6088 17.2917 12.6455C16.8906 12.6822 16.5863 12.736 16.6155 12.7651C16.6447 12.7943 16.47 12.8302 16.2274 12.8449C15.9848 12.8595 15.3771 12.9451 14.877 13.0348C14.0193 13.1886 11.9869 13.4162 12.2566 13.3282C12.3253 13.3058 12.352 13.2584 12.316 13.2229C12.28 13.1874 12.3798 13.149 12.5378 13.1375C12.6957 13.1261 12.9791 13.0434 13.1675 12.954C13.3559 12.8645 13.5987 12.7545 13.7071 12.7096C14.0633 12.5619 20.0203 11.4734 21.4338 11.2977C21.8531 11.2456 23.0641 11.0841 24.1249 10.9387C25.1857 10.7935 26.5867 10.6099 27.2383 10.5308C27.8898 10.4516 28.6392 10.3252 28.9035 10.2496C29.2507 10.1504 29.4062 10.1342 29.4639 10.1911C29.537 10.2632 30.6118 10.1777 31.904 9.99698C32.0993 9.96963 32.7175 9.89871 33.2777 9.83934C34.2829 9.73277 35.8051 9.48602 36.6508 9.29249C36.8896 9.23783 37.1303 9.20986 37.1857 9.2304C37.241 9.25089 37.9482 9.15365 38.7572 9.01428C39.9543 8.80809 40.2737 8.77524 40.4726 8.83799C40.6726 8.90102 40.9167 8.87376 41.8159 8.68802C43.3127 8.37881 45.266 7.97642 46.2395 7.77669C46.6828 7.68573 47.3261 7.54669 47.6691 7.46764C48.012 7.38863 48.4444 7.31505 48.6299 7.30408C48.8154 7.29295 49.1691 7.22356 49.4159 7.14939C49.8319 7.02444 50.6939 6.8617 52.9992 6.47286C54.1835 6.27309 54.4216 6.22911 55.6245 5.9879C56.1794 5.87674 57.0872 5.70287 57.6427 5.60153C58.1982 5.50018 58.7894 5.39234 58.9561 5.36192C60.1353 5.14658 60.363 5.13557 60.6186 5.28164C60.7568 5.36048 60.8737 5.46302 60.8787 5.50946C60.8843 5.5559 60.9223 5.58789 60.9643 5.5805C61.0057 5.57315 61.1455 5.56477 61.2747 5.56182C61.4711 5.55746 61.4957 5.58038 61.423 5.70176C61.3167 5.87949 61.4269 5.96523 61.602 5.84085C61.7989 5.70086 61.7636 5.81822 61.5432 6.03582C61.428 6.14994 61.1824 6.26077 60.9503 6.3038C60.6113 6.36667 60.575 6.3923 60.6958 6.48206C60.877 6.61679 60.7383 6.63416 67.2344 5.66333C67.6802 5.59668 68.4812 5.49981 69.0138 5.44807C69.5463 5.39633 70.5084 5.28693 71.1512 5.20497C71.7939 5.12301 72.6408 5.02334 73.0329 4.98343C73.425 4.94356 73.9246 4.86533 74.1427 4.80956C74.3603 4.7538 75.2397 4.66399 76.0961 4.61003C76.953 4.55603 77.7132 4.49329 77.786 4.47058C77.965 4.41449 80.3541 4.17911 80.9263 4.16108C81.1797 4.15315 81.4628 4.18868 81.5551 4.24017C81.762 4.35548 82.2548 4.33868 84.5326 4.1387C85.5803 4.0468 86.5375 3.92328 86.8468 3.84016C87.2512 3.73169 87.9342 3.66763 89.7539 3.5675C91.0623 3.49555 93.2355 3.34495 94.5836 3.23293C97.315 3.00591 97.1685 3.01399 100.012 2.93322C101.853 2.88092 102.912 2.81976 104.518 2.67294C104.798 2.64729 104.946 2.61583 104.845 2.60303C104.744 2.59024 104.658 2.54477 104.653 2.50199C104.647 2.45069 104.934 2.42172 105.494 2.41685C105.961 2.41279 107.361 2.38253 108.604 2.34961C109.847 2.3167 111.444 2.28953 112.153 2.28924C114.999 2.28809 116.084 2.28277 117.561 2.2627C121.253 2.21255 123.196 2.16418 125.217 2.07218C126.148 2.02982 127.303 1.99446 127.785 1.9936C128.267 1.99273 128.983 1.96966 129.376 1.94232C129.77 1.91504 130.557 1.89787 131.124 1.90431C131.692 1.91074 133.521 1.84891 135.188 1.7669C136.856 1.68489 138.428 1.63821 138.681 1.66316C138.934 1.68811 139.505 1.70492 139.95 1.70052C140.395 1.69612 140.906 1.70104 141.085 1.71146C141.698 1.74709 142.649 1.73928 144.034 1.68722C145.254 1.64137 146.444 1.63574 148.206 1.66747C148.49 1.67257 148.885 1.67642 149.083 1.676C149.281 1.67559 149.792 1.67599 150.217 1.67689C150.642 1.6778 151.361 1.67689 151.814 1.67489C152.267 1.67286 152.662 1.68015 152.691 1.69106C152.721 1.70198 153.01 1.71539 153.332 1.7209C153.656 1.72641 153.989 1.74568 154.074 1.76374C154.159 1.78178 154.638 1.78204 155.138 1.76432C156.509 1.71562 156.507 1.71552 156.521 1.83578C156.528 1.89715 156.582 1.94444 156.642 1.94086C156.702 1.93728 156.713 1.89719 156.666 1.85176C156.609 1.79544 156.641 1.7816 156.767 1.80827C156.868 1.82978 157.053 1.84128 157.177 1.83382C157.33 1.82467 157.413 1.86833 157.435 1.96814C157.473 2.14488 157.419 2.15676 157.197 2.01989C156.965 1.87704 156.727 1.9031 156.817 2.06143C156.861 2.13942 156.852 2.15818 156.793 2.11021C156.728 2.05709 156.438 2.06377 155.884 2.13119C154.929 2.24725 154.203 2.27474 152.856 2.24567C152.317 2.23401 151.62 2.22169 151.307 2.21828C150.995 2.21488 150.685 2.20255 150.617 2.19088C150.55 2.17921 150.473 2.22206 150.448 2.28608C150.413 2.37229 150.317 2.39434 150.08 2.37109C149.707 2.33458 149.468 2.32648 148.484 2.31681C148.087 2.31291 147.733 2.29906 147.698 2.28603C147.623 2.25828 146.253 2.33523 144.38 2.47247C143.191 2.55953 142.347 2.56734 141.709 2.49719C141.349 2.45767 138.877 2.57963 138.884 2.6366C138.887 2.6659 139.204 2.69538 139.587 2.70212C139.971 2.70886 140.378 2.72205 140.492 2.73143C141.295 2.79722 143.424 2.79708 145.13 2.73113C145.525 2.71586 145.899 2.72309 145.962 2.74722C146.066 2.78734 149.22 2.77674 149.385 2.73571C149.425 2.72594 149.805 2.72062 150.23 2.72389C150.888 2.72894 152.565 2.71787 152.985 2.70572C153.137 2.70131 153.165 2.79628 153.034 2.86696C152.939 2.91769 152.168 2.97437 151.466 2.98224C151.252 2.98464 151.034 2.94479 150.982 2.89368C150.912 2.82454 150.735 2.82294 150.289 2.88743C149.96 2.93511 149.662 2.98928 149.626 3.00783C149.59 3.02638 149.486 2.99496 149.393 2.93802C149.3 2.88108 149.204 2.86462 149.178 2.90146C149.128 2.97292 147.058 3.06805 146.451 3.02681C146.251 3.01325 145.901 3.00642 145.672 3.01164C145.443 3.01687 145.15 2.98765 145.021 2.94673C144.832 2.88725 144.787 2.89225 144.796 2.97168C144.802 3.03015 144.671 3.08726 144.476 3.11051C143.672 3.2066 142.539 3.27013 141.634 3.26983C140.984 3.26963 140.708 3.29106 140.814 3.33376C141.239 3.50589 140.493 3.6482 139.303 3.62184C138.248 3.59846 138.061 3.60515 137.614 3.6821C137.385 3.72181 137.057 3.73595 136.887 3.71353C136.439 3.65449 134.143 3.64015 133.127 3.69006C132.648 3.7136 131.953 3.72794 131.585 3.72195C131.216 3.71595 130.474 3.72014 129.937 3.73126C129.399 3.74237 128.125 3.75205 127.105 3.75275C126.085 3.75345 124.569 3.77225 123.737 3.79454C122.381 3.83086 122.219 3.84833 122.173 3.96291C122.129 4.07185 121.953 4.10035 120.981 4.15603C120.353 4.192 119.636 4.26095 119.386 4.30936L118.932 4.39736L119.709 4.43424C120.137 4.45448 120.647 4.46048 120.844 4.4475C121.041 4.43448 121.853 4.43707 122.648 4.45309C123.444 4.46914 124.951 4.46844 125.998 4.45157C127.044 4.43469 128.005 4.43075 128.132 4.44282C128.26 4.45489 129.302 4.44126 130.448 4.41256C132.508 4.36094 133.952 4.33302 135.052 4.32357C135.364 4.3209 136.432 4.30402 137.425 4.28612C138.418 4.26818 139.299 4.26444 139.382 4.27778C139.465 4.29113 139.628 4.32185 139.745 4.34603C139.86 4.37022 140.133 4.38866 140.351 4.38701C140.569 4.38541 140.806 4.43391 140.879 4.49489C140.984 4.58289 141.254 4.59513 142.19 4.55427C142.838 4.52598 143.417 4.52068 143.476 4.54244C143.535 4.56421 143.932 4.58092 144.357 4.57956C146.388 4.57312 148.417 4.54519 149.347 4.51078C149.912 4.48996 151.117 4.48709 152.026 4.50446C152.935 4.52179 154.094 4.5222 154.603 4.50536C158.121 4.38874 160.935 4.33889 162.42 4.36693C162.931 4.37658 163.825 4.37757 164.407 4.36915C164.989 4.36069 165.492 4.38094 165.526 4.41412C165.56 4.44734 165.435 4.48635 165.249 4.50089C165.063 4.51542 164.782 4.54191 164.624 4.55985C164.466 4.5778 164.314 4.57012 164.286 4.54281C164.258 4.5155 164.069 4.53751 163.866 4.59176C163.66 4.64683 163.198 4.68645 162.821 4.68153C162.449 4.67664 160.485 4.75914 158.456 4.86484C156.427 4.97054 154.005 5.08108 153.073 5.11044C151.412 5.1628 150.946 5.21979 152.041 5.23659C152.345 5.24127 152.618 5.25995 152.647 5.2781C152.726 5.32677 152.366 5.48055 152.059 5.52942C151.701 5.58637 151.597 5.68747 151.908 5.67696C152.044 5.67232 152.758 5.66378 153.495 5.65799C154.231 5.65216 155.676 5.61668 156.706 5.57915C158.4 5.51747 158.581 5.52342 158.594 5.64132C158.612 5.80496 159.029 5.81892 161.52 5.73934C162.525 5.70722 163.374 5.7078 163.407 5.74057C163.44 5.7733 163.669 5.788 163.916 5.77317C164.757 5.72266 164.545 5.94227 163.53 6.1717C163.244 6.23646 162.856 6.29243 162.668 6.29612C161.415 6.3208 161.759 6.44765 163.171 6.48194C163.739 6.49574 164.528 6.50387 164.925 6.50001C165.321 6.49615 166.04 6.50288 166.524 6.51491C167.007 6.52694 167.98 6.52432 168.687 6.50904C169.558 6.49019 170.009 6.51072 170.086 6.57261C170.149 6.6232 170.521 6.66636 170.921 6.66936C171.318 6.67231 171.694 6.71284 171.756 6.75945C171.818 6.80602 172.207 6.84651 172.622 6.84942C173.035 6.85234 173.484 6.89767 173.616 6.95019C173.769 7.01039 174.217 7.0363 174.829 7.02029C176.15 6.98579 177.19 7.00776 177.254 7.0715C177.322 7.13847 176.437 7.29316 176.293 7.23957C176.233 7.2176 176.188 7.23136 176.193 7.27012C176.197 7.30893 176.364 7.35295 176.564 7.36798C176.959 7.39767 177.043 7.48579 176.768 7.58266C176.444 7.69702 176.929 7.81816 177.997 7.88966C178.893 7.94965 179.467 8.05592 179.061 8.08656C178.679 8.11538 179.284 8.21106 179.905 8.21985C180.273 8.22507 180.631 8.25841 180.701 8.29397C180.771 8.32949 181.123 8.3752 181.484 8.39548C182.486 8.45186 182.486 8.54557 181.483 8.66384C181.108 8.70802 180.771 8.79253 180.674 8.86624C180.54 8.9696 180.363 8.99161 179.708 8.98652C178.379 8.97621 178.119 9.00935 177.942 9.21212C177.856 9.31133 177.808 9.41477 177.835 9.44192C177.862 9.4691 178.198 9.49608 178.581 9.50195C178.963 9.50778 179.326 9.53612 179.386 9.56482C179.445 9.59357 179.716 9.62761 179.986 9.6405C180.729 9.67582 180.59 9.78998 179.742 9.8409C179.33 9.8657 178.96 9.91317 178.921 9.94643C178.882 9.97969 178.455 10.0306 177.973 10.0595C177.363 10.0962 177.085 10.1413 177.062 10.2078C177.039 10.2734 177.152 10.2962 177.421 10.2803C177.637 10.2675 177.978 10.2782 178.18 10.3039C178.381 10.3296 178.938 10.3484 179.417 10.3457C179.897 10.3429 180.344 10.3689 180.412 10.4034C180.48 10.4378 180.56 10.4449 180.59 10.4191C180.621 10.3933 180.755 10.3936 180.89 10.4197C181.079 10.4564 180.973 10.4878 180.424 10.5577C179.775 10.64 179.043 10.7933 178.661 10.9265C178.419 11.0109 178.816 11.0639 179.995 11.1044C180.578 11.1244 181.058 11.1607 181.06 11.1849C181.063 11.2092 181.363 11.1972 181.727 11.1583C182.259 11.1014 182.392 11.1089 182.401 11.1963C182.416 11.3312 182.117 11.5711 181.921 11.5814C181.8 11.5877 181.8 11.5749 181.921 11.5076C182.044 11.4384 182.039 11.4278 181.884 11.4361C181.783 11.4414 181.68 11.4995 181.653 11.5651C181.612 11.6665 181.428 11.689 180.411 11.7167C179.136 11.7515 178.829 11.8194 179.086 12.0104C179.516 12.3301 181.155 12.6021 182.255 12.5361C182.919 12.4963 183.275 12.5657 183.294 12.7385C183.304 12.8249 183.143 12.8569 182.513 12.8933C182.077 12.9186 181.531 12.915 181.301 12.8854C181.071 12.8559 180.004 12.8692 178.931 12.915C177.032 12.996 176.978 13.0024 176.979 13.1488C176.98 13.2928 177.117 13.3883 177.339 13.4009C177.396 13.4042 177.844 13.4372 178.336 13.4744C179.942 13.5961 181.362 13.6437 182.807 13.6244C184.146 13.6066 184.61 13.6645 184.49 13.8346C184.463 13.8735 184.395 13.8881 184.338 13.8672C184.282 13.8462 184.253 13.8727 184.275 13.9259C184.296 13.9795 184.234 14.023 184.135 14.0233C184.036 14.0236 183.98 14.0485 184.011 14.0787C184.041 14.1088 183.913 14.1642 183.724 14.2018C183.317 14.2829 183.235 14.4229 183.471 14.6298C183.596 14.74 183.616 14.809 183.543 14.8843C183.424 15.0077 183.519 15.0816 183.777 15.0661C183.881 15.0599 183.966 15.0688 183.969 15.086C183.97 15.103 184.009 15.1731 184.054 15.2417C184.13 15.3562 184.062 15.3668 183.218 15.3718C182.713 15.3748 182.125 15.3677 181.912 15.3561C181.602 15.3392 181.525 15.3586 181.536 15.4509C181.543 15.5148 181.478 15.6016 181.391 15.644C181.167 15.7534 181.356 16.1736 181.659 16.2421C181.876 16.2911 181.878 16.2946 181.683 16.3158C181.48 16.3381 181.48 16.3381 181.692 16.3897C181.898 16.4401 181.622 16.4835 180.578 16.5649C180.142 16.5989 179.822 16.719 179.836 16.8433C179.843 16.9097 179.741 16.9566 179.566 16.9678C179.411 16.9777 179.182 17.0124 179.057 17.045C178.844 17.1006 178.841 17.1098 179.022 17.1935C179.128 17.2425 179.341 17.2762 179.495 17.2682C179.649 17.2603 180.093 17.3527 180.48 17.4736C180.871 17.5956 181.333 17.6845 181.519 17.6733C182.139 17.6361 183.118 17.6727 183.076 17.7316C183.054 17.7638 183.113 17.7808 183.208 17.7694C183.303 17.758 183.404 17.8055 183.432 17.8748C183.497 18.0357 182.924 18.3542 182.608 18.333C182.481 18.3246 182.365 18.3552 182.349 18.401C182.313 18.5092 181.121 18.6107 180.633 18.5472C180.426 18.5203 179.373 18.5421 178.294 18.5958C176.469 18.6865 175.936 18.7567 176.629 18.8152C176.786 18.8285 177.126 18.861 177.384 18.8874C177.642 18.9139 178.049 18.9252 178.289 18.9126C178.528 18.9 178.728 18.9232 178.732 18.9641C178.737 19.0051 178.813 19.0342 178.901 19.0289C178.989 19.0236 179.16 19.0504 179.28 19.0884C179.497 19.1568 179.497 19.1587 179.267 19.26C178.864 19.4373 179.01 19.5731 179.734 19.6938C180.105 19.7557 180.437 19.8538 180.47 19.9117C180.503 19.9697 180.573 20.0341 180.625 20.0548C180.79 20.1201 180.628 20.3609 180.445 20.3221C180.353 20.3025 180.308 20.3053 180.345 20.3284C180.382 20.3514 180.306 20.4616 180.176 20.5733C180.004 20.7202 179.818 20.787 179.502 20.815C179.262 20.8362 179.086 20.8744 179.112 20.8998C179.138 20.9252 178.716 20.956 178.175 20.9683C177.388 20.9862 177.159 21.0154 177.032 21.1138C176.855 21.2505 175.856 21.3625 175.321 21.3055C175.117 21.2837 174.972 21.3029 174.935 21.3567C174.901 21.404 174.765 21.4493 174.632 21.4573C174.324 21.4758 174.075 21.5626 174.084 21.648C174.089 21.6845 174.159 21.7104 174.24 21.7055C174.322 21.7006 174.433 21.745 174.488 21.8042C174.55 21.871 174.961 21.9417 175.571 21.9905C176.772 22.0867 177.671 22.2901 177.606 22.451C177.581 22.5128 177.493 22.5489 177.41 22.5314C177.328 22.5139 177.29 22.5283 177.325 22.5634C177.361 22.5985 177.281 22.7387 177.147 22.8751C176.968 23.0576 176.849 23.1137 176.694 23.0879C176.576 23.0684 176.511 23.0815 176.548 23.1171C176.584 23.1525 176.453 23.1943 176.257 23.2101C176.062 23.2259 175.586 23.3158 175.198 23.4099L174.494 23.5811L174.742 23.7442C174.879 23.834 175.033 23.9048 175.085 23.9017C175.137 23.8986 175.344 23.9411 175.545 23.9961C175.894 24.0921 175.904 24.1036 175.773 24.2781C175.687 24.3927 175.677 24.4748 175.745 24.5C175.804 24.522 175.827 24.5766 175.796 24.6212C175.759 24.6735 175.703 24.6684 175.638 24.6067C175.573 24.5447 175.513 24.5395 175.469 24.5917C175.431 24.636 175.268 24.729 175.105 24.7984L174.81 24.9244L175.137 24.9303C175.491 24.9366 175.7 25.1162 175.454 25.2024C175.37 25.2315 175.275 25.2384 175.241 25.2176C175.207 25.1969 175.034 25.2517 174.855 25.3395C174.676 25.4272 174.357 25.5334 174.146 25.5755C173.936 25.6175 173.706 25.7007 173.636 25.7603C173.471 25.9016 173.401 25.9029 172.43 25.7833C171.558 25.6759 171.319 25.7051 170.995 25.9588C170.812 26.1019 170.733 26.1132 170.19 26.0734C169.478 26.0213 168.155 26.0886 168.24 26.1726C168.272 26.2049 168.64 26.2528 169.057 26.279C170.117 26.3459 170.238 26.3667 170.075 26.4542C169.792 26.6059 171.161 26.8416 172.476 26.8677C172.831 26.8747 173.147 26.9053 173.178 26.9358C173.209 26.9662 173.147 27.0862 173.042 27.2024C172.864 27.3975 172.863 27.423 173.029 27.5362C173.128 27.6036 173.211 27.677 173.213 27.6994C173.223 27.7914 171.475 27.7632 170.89 27.662C170.049 27.5164 168.374 27.4739 168.233 27.5945C168.158 27.6583 168.163 27.709 168.25 27.7737C168.367 27.861 168.536 27.8912 169.931 28.0751C170.366 28.1324 170.589 28.1987 170.597 28.2733C170.608 28.3676 170.488 28.3847 169.845 28.381C169.354 28.3782 169.059 28.4056 169.022 28.4575C168.991 28.502 169.022 28.5349 169.091 28.5308C169.16 28.5267 169.195 28.542 169.168 28.565C169.105 28.619 167.63 28.4849 167.477 28.4113C167.357 28.3533 165.843 28.2757 165.526 28.3113C165.428 28.3222 165.352 28.3731 165.358 28.4243C165.364 28.4755 165.35 28.564 165.327 28.6209C165.287 28.7192 166.558 28.8368 168.739 28.9363C169.066 28.9512 169.507 29.0041 169.718 29.0539C169.929 29.1036 170.245 29.1358 170.421 29.1254C170.885 29.0983 171.568 29.2056 171.469 29.2902C171.423 29.3294 170.804 29.406 170.093 29.4604C169.382 29.5148 168.809 29.5646 168.819 29.571C168.829 29.5773 169.072 29.6339 169.359 29.6966C169.859 29.8058 169.872 29.815 169.66 29.9144C169.494 29.9923 169.309 30.006 168.92 29.9693C168.286 29.9096 168.204 29.9133 168.213 30.0006C168.218 30.0383 168.361 30.0828 168.532 30.0996C169.102 30.1553 168.992 30.2594 168.32 30.2997C167.929 30.3232 167.54 30.3941 167.355 30.4753C167.169 30.5573 166.954 30.596 166.813 30.5727C166.514 30.5229 161.705 30.7859 161.768 30.8486C161.903 30.9815 160.56 31.0614 159.398 30.9895C157.046 30.8442 155.053 30.8009 153.778 30.8675C153.074 30.9043 152.009 30.9175 151.412 30.8967C150.814 30.876 149.752 30.8587 149.051 30.8584C148.35 30.858 147.746 30.8466 147.708 30.833C147.67 30.8194 147.292 30.8076 146.867 30.8069C146.441 30.8061 145.931 30.801 145.732 30.7955C145.318 30.7841 143.441 30.8206 142.081 30.8665C141.097 30.8997 139.599 30.9208 138.583 30.9157C138.243 30.9141 136.926 30.9606 135.657 31.0193C134.388 31.0779 132.886 31.1261 132.319 31.1264C131.753 31.1267 130.193 31.1961 128.853 31.2806C126.827 31.4085 126.403 31.4538 126.332 31.5498C126.26 31.6478 126.232 31.6504 126.144 31.567C126.075 31.5015 125.941 31.4895 125.743 31.5309C125.579 31.5651 125.391 31.5595 125.324 31.5183C125.257 31.4772 125.05 31.4457 124.863 31.4482C124.676 31.4507 124.429 31.4385 124.313 31.421C123.685 31.3259 123.042 31.3259 122.793 31.421C122.594 31.4975 122.069 31.4528 122.131 31.3647C122.154 31.3323 121.657 31.3276 121.027 31.3544C119.329 31.4265 119.152 31.4236 118.947 31.3194C118.781 31.2348 118.766 31.24 118.81 31.367C118.845 31.4637 118.811 31.5041 118.705 31.4925C118.619 31.483 118.444 31.4808 118.318 31.4876C118.191 31.4944 118.084 31.4743 118.081 31.4428C118.078 31.4114 117.998 31.3695 117.905 31.3496C117.781 31.3234 117.755 31.3443 117.809 31.4261C117.86 31.5037 117.841 31.5229 117.75 31.4878C117.676 31.4598 117.177 31.4526 116.642 31.4719C115.513 31.5124 115.681 31.5028 110.395 31.8338C108.171 31.9731 106.065 32.0799 105.714 32.0713C105.362 32.0626 105 32.0818 104.908 32.1139C104.739 32.1729 101.405 32.4697 100.377 32.5173C99.5716 32.5545 98.6984 32.9526 99.2191 33.0449C99.2963 33.0587 99.2505 33.1144 99.1056 33.1815C98.9708 33.2439 98.8382 33.3247 98.8108 33.3611C98.7118 33.4927 97.8503 33.6146 97.5925 33.5334C97.4303 33.4822 97.0157 33.4852 96.3697 33.5423C95.8321 33.5898 94.0639 33.7262 92.44 33.8454C90.8167 33.9646 89.3791 34.0893 89.2448 34.1224C89.1112 34.1556 88.5328 34.216 87.9599 34.2567C87.3866 34.2975 86.83 34.3739 86.7226 34.4267C86.5302 34.521 85.596 34.7132 85.4338 34.6917C85.2335 34.6652 84.8711 34.6967 84.5449 34.7687C84.3514 34.8116 84.1002 34.8466 83.9867 34.8464C83.8737 34.8464 83.688 34.8459 83.5744 34.8455C83.4609 34.845 82.935 34.9102 82.4053 34.9904C81.8761 35.0706 81.2435 35.1474 81.0001 35.1612C80.7563 35.175 80.5062 35.2212 80.4447 35.2639C80.3826 35.3066 80.1846 35.3737 80.005 35.4132C79.7371 35.4718 79.6755 35.462 79.6638 35.359C79.6515 35.2474 79.5659 35.2441 78.9137 35.3303C78.5087 35.3838 77.4408 35.4795 76.5413 35.543C75.6413 35.6066 74.6613 35.7128 74.3631 35.779C74.0655 35.8453 73.7992 35.9009 73.7718 35.9025C73.7444 35.9042 73.7853 35.9523 73.8619 36.0095C73.9391 36.0667 74.1573 36.1041 74.3475 36.0927C74.5376 36.0812 74.6948 36.0859 74.6971 36.103C74.6987 36.1201 74.7345 36.1854 74.7759 36.2481C74.8789 36.4044 74.5897 36.4137 74.3441 36.2621C74.2048 36.1761 74.1422 36.1696 74.1192 36.2386C74.1013 36.291 74.0426 36.3176 73.9883 36.2975C73.9346 36.2775 73.8932 36.2882 73.8966 36.3213C73.9005 36.3544 73.8004 36.3918 73.674 36.4044C73.5481 36.4171 72.85 36.5012 72.1234 36.5915C71.3967 36.6818 69.9283 36.8216 68.8599 36.9022C67.7921 36.9829 66.8053 37.0741 66.6672 37.105C66.1984 37.2097 63.5956 37.5434 62.196 37.6783C59.6028 37.9283 57.6589 38.3175 57.2875 38.6611C57.1711 38.7686 56.9558 38.8627 56.7952 38.8762C55.4739 38.987 53.6453 39.1978 52.8474 39.3312C52.5135 39.387 51.9264 39.4722 51.5427 39.5205C51.1589 39.5688 50.6172 39.6541 50.3388 39.71C50.0604 39.766 49.8158 39.8128 49.7953 39.814C49.7749 39.8152 49.7486 39.7307 49.737 39.626ZM49.6615 38.949C49.6525 38.8676 49.6064 38.8643 49.4576 38.9342C49.3427 38.988 49.2943 39.0682 49.3372 39.1332C49.3926 39.217 49.4394 39.2204 49.5411 39.1481C49.6138 39.0964 49.6679 39.0068 49.6615 38.949ZM66.7886 36.8065C67.1773 36.6781 67.1667 36.6772 66.3198 36.7646C64.3804 36.9646 63.7746 37.0434 63.7802 37.0947C63.7908 37.1918 66.3701 36.9447 66.7886 36.8065ZM19.1353 38.7637C19.1335 38.7477 19.0629 38.7387 18.9785 38.7437C18.894 38.7488 18.8285 38.7854 18.8329 38.825C18.8373 38.8646 18.9079 38.8737 18.9898 38.8451C19.0716 38.8164 19.1371 38.7798 19.1353 38.7637ZM26.5293 38.0656C26.5604 38.0214 26.4729 37.9941 26.3283 38.0028C26.1876 38.0112 26.0476 38.0533 26.0174 38.0963C25.9864 38.1405 26.0738 38.1679 26.2184 38.1592C26.3592 38.1507 26.4991 38.1086 26.5293 38.0656ZM21.6241 37.977C21.6156 37.9002 21.4922 37.9003 21.2719 37.9774C21.0229 38.0645 21.1019 38.1497 21.3794 38.0936C21.5181 38.0656 21.6281 38.0131 21.6241 37.977ZM79.5497 34.4862C79.8915 34.3945 79.9362 34.3645 79.7606 34.3452C79.4826 34.3145 76.2365 34.6095 74.503 34.8231C74.032 34.8811 77.7032 34.7332 78.4527 34.664C78.8174 34.6303 79.3114 34.5503 79.5497 34.4862ZM83.0732 34.0441C83.1834 34.018 82.9748 34.0174 82.6089 34.0427C81.7363 34.1031 81.3984 34.1922 81.9584 34.2141C82.186 34.2231 82.4847 34.1991 82.6224 34.161C82.76 34.1229 82.9625 34.0702 83.0732 34.0441ZM17.7434 37.9893C17.9537 37.9722 17.9519 37.9684 17.7075 37.9138C17.4194 37.8496 17.1844 37.9043 17.1987 38.0324C17.2039 38.0791 17.2786 38.0925 17.3651 38.0623C17.4514 38.032 17.6216 37.9992 17.7434 37.9893ZM84.6042 33.8899C84.6294 33.8683 84.4448 33.8574 84.1936 33.8655C83.943 33.8737 83.7098 33.9197 83.6762 33.9678C83.6332 34.0292 83.7551 34.0365 84.0862 33.9921C84.3458 33.9574 84.5791 33.9114 84.6042 33.8899ZM164.561 28.2037C164.594 28.1553 164.428 28.1401 164.124 28.1639C163.688 28.198 163.668 28.2066 163.946 28.2406C164.404 28.2966 164.499 28.2908 164.561 28.2037ZM6.64795 36.587C6.57165 36.5699 6.48366 36.5779 6.45239 36.6046C6.42112 36.6314 6.48355 36.6453 6.59112 36.6356C6.70999 36.6249 6.73231 36.6058 6.64795 36.587ZM7.84637 36.4164C8.04674 36.3561 8.05546 36.3434 7.89067 36.3516C7.7779 36.3571 7.59672 36.396 7.48803 36.4379C7.23625 36.535 7.50537 36.5189 7.84637 36.4164ZM9.22328 36.3631C9.30959 36.3329 9.37347 36.248 9.36531 36.1744C9.35261 36.0605 9.28666 36.0504 8.91971 36.1064C8.45402 36.1773 8.16119 36.3226 8.52814 36.3005C8.64869 36.2933 8.77952 36.3191 8.8189 36.358C8.90125 36.4392 9.00205 36.4405 9.22328 36.3631ZM175.394 25.0815C175.39 25.0406 175.306 25.0125 175.208 25.019C175.054 25.0292 175.052 25.0401 175.19 25.0938C175.393 25.1729 175.405 25.1723 175.394 25.0815ZM11.2775 31.89C11.2012 31.873 11.1133 31.8809 11.082 31.9077C11.0507 31.9344 11.1131 31.9484 11.2207 31.9387C11.3396 31.9279 11.3618 31.9088 11.2775 31.89ZM10.4152 31.7233C10.4017 31.602 10.1154 31.6055 9.7529 31.7313C9.3582 31.8683 9.4637 31.9416 9.96905 31.8817C10.2761 31.8453 10.4229 31.7931 10.4152 31.7233ZM12.3227 31.6627C12.2071 31.5487 11.8376 31.54 11.85 31.6517C11.857 31.7143 11.9668 31.75 12.1237 31.7406C12.2678 31.7319 12.3573 31.6969 12.3227 31.6627ZM11.538 31.6259C11.6462 31.5654 11.5851 31.5502 11.2995 31.5665C11.0883 31.5785 10.9192 31.6219 10.9237 31.6628C10.9343 31.7576 11.3467 31.7328 11.538 31.6259ZM181.226 12.6729C181.221 12.6319 181.172 12.6013 181.115 12.6046C181.059 12.608 181.017 12.6443 181.021 12.6852C181.026 12.7261 181.075 12.7568 181.132 12.7534C181.188 12.75 181.23 12.7138 181.226 12.6729ZM181.813 11.2398C181.741 11.2234 181.626 11.2303 181.558 11.2552C181.489 11.2801 181.549 11.2935 181.69 11.285C181.831 11.2766 181.886 11.2563 181.813 11.2398ZM180.178 10.436C180.05 10.4259 179.842 10.4383 179.717 10.4637C179.593 10.4891 179.698 10.4973 179.951 10.4821C180.204 10.4669 180.307 10.4461 180.178 10.436ZM175.376 10.1198C175.373 10.0879 174.985 10.045 174.516 10.0243C174.046 10.0037 173.548 9.97029 173.409 9.95004C173.253 9.92721 173.184 9.93974 173.228 9.9831C173.266 10.0215 173.708 10.0712 174.21 10.0936C174.71 10.1159 175.167 10.142 175.225 10.1516C175.283 10.1612 175.342 10.171 175.356 10.1734C175.371 10.1757 175.38 10.1516 175.376 10.1198ZM25.9869 18.4002C26.1633 18.3321 26.1549 18.3252 25.9084 18.3353C25.7566 18.3415 25.6076 18.3818 25.5774 18.4248C25.5117 18.5182 25.7123 18.5061 25.9869 18.4002ZM174.535 9.04084C174.531 9.00569 174.061 8.96648 173.491 8.95375C172.206 8.92496 171.977 8.93658 172.118 9.02335C172.177 9.05974 172.735 9.08897 173.357 9.08827C173.979 9.08758 174.5 9.09098 174.515 9.09587C174.53 9.10076 174.539 9.07595 174.535 9.04084ZM20.0955 17.4183C20.1207 17.3825 20.0742 17.3572 19.9922 17.3621C19.9103 17.367 19.8463 17.399 19.8501 17.4331C19.8539 17.4672 19.9004 17.4925 19.9534 17.4893C20.0063 17.4861 20.0703 17.4542 20.0955 17.4183ZM33.7769 16.4582C33.7006 16.4412 33.6126 16.4491 33.5813 16.4759C33.55 16.5026 33.6125 16.5166 33.72 16.5069C33.8389 16.4961 33.8612 16.4771 33.7769 16.4582ZM17.8787 17.3143C17.8742 17.2734 17.7899 17.2452 17.6915 17.2518C17.5384 17.2619 17.5359 17.2728 17.674 17.3266C17.8773 17.4057 17.8889 17.405 17.8787 17.3143ZM18.2753 17.1737C18.2733 17.1556 18.2256 17.1436 18.1693 17.1471C18.113 17.1504 18.0709 17.1887 18.0757 17.232C18.0805 17.2753 18.1282 17.2873 18.1817 17.2586C18.2352 17.23 18.2773 17.1917 18.2753 17.1737ZM24.0529 16.3052C24.1905 16.2682 24.6224 16.1906 25.0128 16.1328C25.4031 16.075 25.8798 15.9826 26.072 15.9275C26.2643 15.8724 26.4219 15.8301 26.4222 15.8335C26.4254 15.8621 27.1089 15.6607 27.4451 15.5323C27.955 15.3374 27.9744 15.2101 27.4897 15.2392C27.2394 15.2542 27.1276 15.227 27.119 15.1491C27.1062 15.0347 27.5594 14.962 28.3243 14.9556C28.6575 14.9528 29.5886 14.7678 29.7949 14.6634C29.9489 14.5854 29.4237 14.5394 28.7489 14.5718C28.3099 14.5929 27.9421 14.6678 27.4953 14.8269C27.1475 14.9508 26.7681 15.0583 26.6521 15.0659C26.4842 15.077 26.4732 15.0918 26.5976 15.1391C26.6836 15.1718 26.7888 15.1799 26.8315 15.157C26.8742 15.1341 26.9126 15.1471 26.9169 15.1858C26.9243 15.2524 26.7055 15.3128 25.9344 15.4573C25.7497 15.492 25.5789 15.5689 25.5549 15.6283C25.5193 15.7166 25.4801 15.7207 25.34 15.651C25.1965 15.5797 25.1806 15.5843 25.242 15.6794C25.2957 15.7625 25.2558 15.7933 25.0937 15.7938C24.9718 15.7943 24.7226 15.8342 24.5398 15.8825C24.3095 15.9435 24.1597 15.946 24.0513 15.8908C23.9633 15.846 23.8984 15.8433 23.903 15.8846C23.9121 15.9667 23.1583 16.2483 22.8855 16.2646C22.7889 16.2705 22.7149 16.321 22.7211 16.3769C22.7296 16.4527 22.8692 16.4651 23.2676 16.4256C23.562 16.3965 23.9153 16.3423 24.0529 16.3052ZM27.9636 13.3542C27.8878 13.3407 27.781 13.368 27.7263 13.4148C27.6565 13.4746 27.6975 13.4819 27.8642 13.4393C27.9997 13.4047 28.0423 13.3681 27.9636 13.3542ZM151.585 5.63372C151.582 5.60304 151.438 5.57923 151.266 5.58079C151.087 5.58239 150.983 5.61269 151.023 5.65158C151.103 5.73121 151.594 5.71564 151.585 5.63372ZM28.1717 12.5731L28.427 12.552L28.1804 12.4968C27.9019 12.4344 27.4446 12.5228 27.4573 12.6366C27.4619 12.6781 27.5664 12.6854 27.691 12.6529C27.8149 12.6206 28.0313 12.5847 28.1717 12.5731ZM150.716 5.23031C150.712 5.19622 150.64 5.17245 150.555 5.17754C150.471 5.18259 150.405 5.21466 150.409 5.24874C150.412 5.28287 150.485 5.3066 150.569 5.30151C150.654 5.29646 150.72 5.26439 150.716 5.23031ZM151.145 5.21573C151.069 5.19869 150.981 5.20665 150.95 5.23339C150.919 5.26016 150.981 5.27412 151.089 5.26439C151.207 5.25367 151.23 5.23458 151.145 5.21573ZM29.9176 12.3459C29.8413 12.3288 29.7534 12.3368 29.7221 12.3635C29.6908 12.3903 29.7532 12.4043 29.8608 12.3945C29.9797 12.3838 30.002 12.3647 29.9176 12.3459ZM18.4216 12.9376C18.4171 12.8967 18.3673 12.866 18.311 12.8694C18.2546 12.8728 18.2123 12.909 18.2169 12.9499C18.2215 12.9908 18.2712 13.0216 18.3275 13.0182C18.3839 13.0148 18.4262 12.9786 18.4216 12.9376ZM21.0616 12.5827C21.0523 12.4993 20.8682 12.584 20.8248 12.6916C20.7822 12.7969 20.7977 12.8006 20.9194 12.7141C20.9993 12.6573 21.0633 12.5981 21.0616 12.5827ZM22.0864 12.5303C22.0796 12.469 22.0558 12.4198 22.0337 12.4212C22.0116 12.4225 21.9726 12.4754 21.947 12.5387C21.9214 12.602 21.9451 12.6512 21.9996 12.6479C22.0542 12.6446 22.0932 12.5917 22.0864 12.5303ZM155.83 1.93853C155.754 1.92147 155.666 1.92942 155.635 1.95617C155.604 1.98294 155.666 1.9969 155.774 1.98718C155.892 1.97646 155.915 1.95737 155.83 1.93853ZM61.4034 6.09253C61.4314 6.05249 61.4101 6.00342 61.3564 5.98342C61.3027 5.96346 61.2378 5.99874 61.2121 6.06181C61.1618 6.18615 61.3195 6.21153 61.4034 6.09253ZM16.3687 40.9412C16.3041 40.894 16.2914 40.8514 16.3403 40.8472C16.3893 40.8431 16.3392 40.8084 16.229 40.7703C15.9461 40.6724 16.1745 40.5603 16.7048 40.5366C16.9818 40.5242 17.0503 40.538 16.9156 40.579C16.7257 40.6368 16.6014 40.8349 16.7625 40.8231C17.0627 40.8011 17.2689 40.6908 17.2098 40.5839C17.1522 40.4796 17.1645 40.4798 17.3058 40.5856C17.4979 40.7293 18.28 40.7109 18.3312 40.5614C18.3572 40.4855 18.3988 40.4835 18.5337 40.5517C18.7463 40.6593 18.8962 40.9424 18.7219 40.9075C18.654 40.8936 18.6083 40.8364 18.6204 40.7802C18.6358 40.7087 18.5896 40.7189 18.4669 40.814C18.3266 40.9227 18.1095 40.9576 17.3888 40.9888C16.8156 41.0139 16.4434 40.9962 16.3687 40.9412ZM14.9452 40.8618C14.802 40.8087 14.8491 40.6395 15.0098 40.6298C15.1266 40.6228 15.2525 40.8267 15.1615 40.8755C15.1212 40.8973 15.0238 40.8911 14.9452 40.8618ZM17.0445 40.1332C16.9166 40.0082 16.9264 39.9891 17.13 39.9668C17.2565 39.9529 17.4284 39.932 17.5121 39.9202C17.7828 39.8822 17.8418 39.9471 17.6778 40.1026C17.4706 40.2989 17.2263 40.3107 17.0445 40.1332ZM78.9981 35.8554C78.9959 35.8374 79.0378 35.7991 79.0915 35.7705C79.1452 35.7418 79.1928 35.7538 79.1973 35.7971C79.2023 35.8405 79.1603 35.8787 79.1039 35.8821C79.0473 35.8854 78.9998 35.8735 78.9981 35.8554ZM80.1935 35.7324C80.2573 35.6774 80.3373 35.6496 80.3714 35.6706C80.4055 35.6916 80.3535 35.7367 80.2556 35.7707C80.1141 35.8198 80.1012 35.8119 80.1935 35.7324ZM25.2229 38.8273C25.2189 38.7914 25.2819 38.7149 25.3629 38.6573C25.4774 38.5759 25.5397 38.5708 25.6429 38.6344C25.7461 38.6981 25.7434 38.7339 25.6307 38.7956C25.4475 38.8959 25.2324 38.9126 25.2229 38.8273ZM140.728 31.2078C140.723 31.1669 140.786 31.1294 140.867 31.1245C140.948 31.1196 141.047 31.1474 141.086 31.1862C141.126 31.2251 141.063 31.2625 140.947 31.2695C140.831 31.2765 140.732 31.2487 140.728 31.2078ZM138.979 31.2333C138.969 31.1485 139.243 31.1234 139.323 31.2017C139.354 31.2325 139.291 31.2679 139.183 31.2804C139.075 31.2928 138.983 31.2717 138.979 31.2333ZM37.4401 37.21C37.3285 37.041 37.466 37.007 37.834 37.1125C38.026 37.1675 38.1375 37.2204 38.0819 37.2299C37.6557 37.303 37.4983 37.2981 37.4401 37.21ZM125.945 31.7211C125.94 31.6801 125.956 31.6454 125.982 31.6439C126.006 31.6425 126.059 31.673 126.098 31.7118C126.138 31.7507 126.121 31.7854 126.061 31.7889C126.002 31.7925 125.949 31.762 125.945 31.7211ZM124.461 31.7453C124.411 31.696 124.396 31.634 124.427 31.6075C124.511 31.5354 124.622 31.6273 124.585 31.7382C124.558 31.8158 124.534 31.8174 124.461 31.7453ZM124.839 31.7379C124.622 31.689 124.675 31.5833 124.902 31.6122C125.017 31.6268 125.114 31.6684 125.118 31.7045C125.126 31.7754 125.047 31.7849 124.839 31.7379ZM173.877 28.4182C173.75 28.3397 173.783 28.2491 173.943 28.2395C174.027 28.2344 174.102 28.2805 174.109 28.3419C174.122 28.458 174.004 28.4967 173.877 28.4182ZM46.7757 35.5921C46.7445 35.5613 46.8084 35.5258 46.9176 35.5132C47.0269 35.5005 47.0931 35.5233 47.0647 35.5637C47.0016 35.6534 46.8526 35.668 46.7757 35.5921ZM47.6843 35.4089C47.7097 35.3459 47.8058 35.2874 47.898 35.2787C47.9901 35.2699 48.2712 35.2353 48.5225 35.2016C48.8521 35.1575 48.939 35.164 48.8343 35.225C48.7145 35.2947 48.7145 35.3082 48.8343 35.302C48.9141 35.2979 48.9531 35.317 48.9208 35.3446C48.8886 35.3722 48.5868 35.4237 48.2501 35.459C47.7402 35.5125 47.6458 35.5041 47.6843 35.4089ZM5.88529 37.7376C5.79965 37.6532 5.9824 37.5534 6.12555 37.6064C6.24581 37.651 6.18557 37.7893 6.0422 37.798C5.99253 37.8009 5.92193 37.7738 5.88529 37.7376ZM6.63783 35.7444C6.63352 35.7059 6.67329 35.6512 6.72615 35.6228C6.78125 35.5933 6.80178 35.6221 6.7742 35.6904C6.7205 35.8234 6.64974 35.8514 6.63783 35.7444ZM7.38426 35.661C7.37766 35.6014 7.4133 35.5679 7.46353 35.5865C7.51376 35.6051 7.53183 35.6531 7.50369 35.6931C7.43176 35.7954 7.39825 35.7864 7.38426 35.661ZM184.706 15.2351C184.617 15.2005 184.591 15.1694 184.647 15.166C184.704 15.1626 184.822 15.1882 184.911 15.2228C185 15.2574 185.027 15.2884 184.97 15.2918C184.914 15.2952 184.795 15.2696 184.706 15.2351ZM15.89 19.8145C15.8864 19.7823 15.9757 19.7504 16.0883 19.7436C16.2009 19.7368 16.2965 19.7627 16.3008 19.8011C16.3051 19.8395 16.2159 19.8714 16.1026 19.8719C15.9893 19.8726 15.8936 19.8467 15.89 19.8145ZM20.0554 18.4644L19.7996 18.3375L20.4056 18.2417C20.739 18.1889 21.2532 18.1293 21.5485 18.1093C21.8438 18.0892 22.0829 18.05 22.0799 18.0222C22.0735 17.9642 22.6962 18.0429 22.7998 18.1132C22.8375 18.1388 22.724 18.1485 22.5476 18.135C22.3502 18.1199 22.1172 18.1614 21.9413 18.243C21.7842 18.3159 21.4141 18.3933 21.1189 18.415C20.8238 18.4367 20.5853 18.4814 20.5889 18.5143C20.6008 18.621 20.3177 18.5945 20.0554 18.4644ZM18.7673 18.5638C18.7986 18.537 18.8866 18.5291 18.9629 18.5461C19.0472 18.565 19.0249 18.5841 18.906 18.5948C18.7985 18.6045 18.736 18.5906 18.7673 18.5638ZM16.7904 17.648C16.7773 17.5698 16.7965 17.5244 16.8333 17.5471C16.8701 17.5698 16.8809 17.6337 16.8572 17.6892C16.8312 17.7506 16.805 17.7344 16.7904 17.648ZM19.5167 16.8548C19.5415 16.8194 19.461 16.7375 19.3378 16.6728C19.1174 16.5568 19.1235 16.5509 19.7229 16.2992C20.4449 15.9962 20.5134 15.9862 20.5351 16.1811C20.5453 16.2728 20.4829 16.3344 20.3726 16.3418C20.2275 16.3514 20.2225 16.3647 20.3459 16.4116C20.4296 16.4435 20.5813 16.4526 20.6831 16.432C20.7848 16.4113 20.8718 16.4285 20.8764 16.4702C20.8811 16.5119 20.7345 16.5491 20.5507 16.5528C20.3669 16.5565 20.1248 16.569 20.0128 16.5805C19.843 16.598 19.8359 16.612 19.9706 16.6644C20.1087 16.7181 20.1061 16.729 19.9531 16.7392C19.8547 16.7458 19.7778 16.7846 19.7824 16.8255C19.7869 16.8664 19.7189 16.9042 19.6311 16.9095C19.5433 16.9148 19.4918 16.8901 19.5167 16.8548ZM20.7588 16.1758C20.6507 16.1358 20.6512 16.1045 20.7614 16.0262C20.9159 15.9163 21.0577 15.9957 20.9586 16.1366C20.9233 16.1868 20.8351 16.2041 20.7588 16.1758ZM16.8597 13.2561C16.8203 13.2173 16.8572 13.1814 16.9417 13.1763C17.0262 13.1712 17.1275 13.1988 17.1668 13.2377C17.2062 13.2765 17.1693 13.3124 17.0848 13.3175C17.0003 13.3226 16.899 13.295 16.8597 13.2561ZM18.9193 12.7971C19.0524 12.6592 19.1101 12.6422 19.1208 12.7378C19.1249 12.7744 19.0549 12.8299 18.9654 12.8612C18.8292 12.9088 18.8217 12.8984 18.9193 12.7971ZM163.471 2.90781C163.581 2.81339 164.23 2.70568 164.368 2.75865C164.448 2.78913 164.469 2.82067 164.413 2.82873C163.867 2.90773 163.428 2.94455 163.471 2.90781ZM162.84 2.85335C162.75 2.81922 162.811 2.79377 163.012 2.78173C163.183 2.77145 163.326 2.79094 163.33 2.82504C163.339 2.90422 163.021 2.92264 162.84 2.85335ZM160.197 2.91642C159.751 2.87144 158.681 2.8842 156.688 2.95826C156.006 2.98362 155.345 2.97198 155.219 2.9324C155.082 2.88931 154.621 2.89094 154.069 2.93644C153.562 2.97826 153.147 3.00486 153.146 2.99552C153.143 2.96964 153.714 2.71585 153.786 2.7116C153.82 2.70954 153.823 2.74305 153.793 2.78605C153.76 2.83168 153.868 2.85643 154.051 2.84545C154.223 2.83511 154.36 2.79316 154.356 2.75224C154.351 2.71133 154.396 2.67492 154.456 2.67133C154.516 2.66775 154.535 2.70875 154.498 2.76244C154.448 2.83462 154.467 2.83812 154.57 2.77585C154.647 2.72953 154.802 2.68994 154.915 2.68788C155.028 2.68579 155.366 2.67438 155.666 2.66249C155.965 2.65059 156.192 2.66725 156.169 2.69951C156.147 2.73177 156.411 2.73624 156.757 2.70943C157.103 2.68257 157.47 2.68706 157.573 2.71925C157.697 2.75834 157.757 2.75073 157.75 2.69641C157.745 2.65163 157.8 2.63666 157.871 2.66315C157.943 2.68963 158.396 2.6968 158.878 2.67909C159.36 2.66137 159.755 2.65084 159.756 2.65569C159.756 2.66055 159.988 2.66152 160.271 2.65788C160.554 2.65424 160.798 2.65797 160.813 2.6662C160.839 2.68022 160.947 2.69643 161.127 2.71338C161.21 2.72115 160.754 2.96609 160.666 2.96125C160.637 2.95965 160.426 2.93954 160.197 2.91642ZM156.009 2.79343C156.005 2.75763 155.912 2.7337 155.803 2.74027C155.694 2.74683 155.583 2.78299 155.557 2.82062C155.53 2.85826 155.623 2.88218 155.762 2.87379C155.902 2.86539 156.013 2.82924 156.009 2.79343ZM161.461 2.24948C161.421 2.21002 161.348 2.19957 161.298 2.22625C161.248 2.25294 161.203 2.2413 161.199 2.20038C161.183 2.05634 161.348 2.04413 161.487 2.17917C161.563 2.25428 161.605 2.31696 161.58 2.31849C161.555 2.32001 161.501 2.28893 161.461 2.24948ZM159.237 2.0909C159.121 2.01895 159.006 1.97689 158.982 1.99743C158.958 2.01798 158.715 2.05948 158.442 2.08967C157.97 2.14195 157.364 2.02404 157.501 1.90656C157.611 1.81252 158.32 1.7904 158.485 1.87585C158.654 1.96336 158.943 1.94927 159.062 1.8477C159.161 1.76222 159.685 1.74818 159.767 1.82879C159.878 1.93852 159.761 2.20299 159.596 2.21286C159.515 2.21771 159.354 2.16285 159.237 2.0909ZM160.301 2.08415C160.251 2.03549 160.265 2.02007 160.334 2.04587C160.399 2.06966 160.476 2.05334 160.507 2.00964C160.59 1.89174 160.72 1.90467 160.734 2.03224C160.749 2.16329 160.42 2.20258 160.301 2.08415ZM40.5493 8.71747C40.5805 8.69069 40.6685 8.68277 40.7448 8.69985C40.8292 8.71866 40.8069 8.73775 40.688 8.74851C40.5804 8.7582 40.518 8.74424 40.5493 8.71747ZM60.966 5.36467C60.9609 5.32373 60.9777 5.28903 61.0029 5.28755C61.0275 5.28603 61.0801 5.31658 61.1192 5.35543C61.159 5.39428 61.1422 5.42897 61.0823 5.43255C61.023 5.43612 60.9704 5.40557 60.966 5.36467ZM63.354 5.22883C63.1789 5.15052 63.204 5.02133 63.3898 5.04498C63.5083 5.0601 63.5794 5.02527 63.5822 4.95087C63.5844 4.88594 63.5883 4.78213 63.5906 4.72021C63.5934 4.65824 63.6795 4.59833 63.7819 4.587C63.8848 4.57566 64.0023 4.55743 64.0437 4.54647C64.0851 4.53546 64.254 4.49119 64.419 4.44804C64.7865 4.35211 64.9784 4.23027 64.8939 4.14663C64.8587 4.11221 64.9213 4.07858 65.0327 4.07189C65.144 4.0652 65.2626 4.10018 65.2972 4.14962C65.3403 4.21208 65.3823 4.21356 65.4349 4.15459C65.5697 4.00372 65.8779 3.94061 66.0541 4.02799C66.1956 4.09809 66.2079 4.09538 66.1257 4.01222C66.0502 3.93601 66.0703 3.92127 66.2102 3.95096C66.312 3.97247 66.4568 3.98635 66.5329 3.98175C66.609 3.9772 66.7063 4.03534 66.7488 4.11094C66.7986 4.19927 66.8904 4.23192 67.0061 4.20235C67.2618 4.13698 67.2142 3.95465 66.9547 4.00569C66.75 4.04602 66.7494 4.04503 66.9418 3.96401C67.0498 3.91839 67.2942 3.86932 67.4844 3.855C67.6746 3.84066 68.1087 3.77921 68.4482 3.71839C69.3293 3.56078 71.5522 3.24379 72.5686 3.13087C73.0446 3.07801 73.6398 3.00903 73.8915 2.97759C74.4213 2.91135 75.469 2.79366 76.8434 2.64604C77.3754 2.58887 78.1082 2.50567 78.4718 2.46116C79.3449 2.35418 80.7294 2.26699 80.9274 2.30647C81.0147 2.32377 81.2843 2.35187 81.5271 2.36893C81.7699 2.38597 81.9712 2.42456 81.9746 2.45467C81.9779 2.48478 81.8761 2.59902 81.748 2.70854C81.559 2.87066 81.4197 2.91206 80.9996 2.93129C80.693 2.94527 80.5012 2.9846 80.5269 3.02816C80.5504 3.06845 80.9246 3.08288 81.3587 3.06021C82.04 3.0246 82.5043 3.09363 82.3611 3.20927C82.2973 3.26102 80.9453 3.38954 80.9403 3.34434C80.9381 3.3222 80.6265 3.33325 80.2478 3.36887C79.8691 3.40451 79.2912 3.41913 78.964 3.40128C78.6368 3.38347 78.3493 3.38609 78.3246 3.40711C78.3 3.42812 78.083 3.46424 77.8425 3.48738C77.6019 3.51051 77.2808 3.56295 77.1287 3.60392C76.9642 3.64822 76.7964 3.64979 76.7136 3.6078C76.6375 3.56896 76.1285 3.5562 75.5831 3.57943C74.9079 3.6082 74.6098 3.59485 74.6484 3.53762C74.6797 3.49141 74.6322 3.50438 74.5432 3.56646C74.4314 3.6441 74.249 3.67204 73.9587 3.65595C73.6818 3.64059 73.5621 3.65737 73.6102 3.70483C73.6924 3.78571 73.679 3.78815 72.7532 3.86198C72.3879 3.8911 71.9885 3.94747 71.8655 3.98726C71.7424 4.02705 71.6384 4.03222 71.635 3.9988C71.6311 3.96533 71.5131 3.94488 71.3721 3.95334C71.2311 3.9618 71.1187 3.99383 71.1226 4.0245C71.126 4.05522 71.0566 4.08462 70.9688 4.08992C70.881 4.09517 70.8301 4.06975 70.8558 4.03341C70.9173 3.94562 69.8797 4.13147 69.8126 4.22021C69.6901 4.3827 67.7915 4.65389 67.7759 4.51119C67.7708 4.46766 67.7182 4.43494 67.6584 4.43851C67.5985 4.44208 67.5801 4.4746 67.6164 4.51074C67.7216 4.61406 67.4934 4.69528 67.3306 4.61254C67.2215 4.55702 67.174 4.56367 67.1438 4.63861C67.1175 4.70337 66.9525 4.74214 66.68 4.74739C66.4473 4.75191 66.2605 4.78686 66.265 4.82505C66.2784 4.94811 65.7436 4.89888 65.6256 4.76628C65.5635 4.69578 65.4701 4.66075 65.4181 4.68847C65.3666 4.71614 65.3509 4.76505 65.3834 4.79716C65.4158 4.82923 65.3772 4.87831 65.2972 4.90619C65.2178 4.93411 65.121 4.92606 65.083 4.88832C65.0405 4.84644 64.9107 4.86948 64.7513 4.94729C64.4503 5.09373 63.486 5.288 63.354 5.22883ZM61.8503 4.97891C61.8358 4.84825 61.8951 4.82529 61.9941 4.92323C62.031 4.95937 62.0165 5.01279 61.9622 5.04195C61.908 5.07106 61.8576 5.04277 61.8503 4.97891ZM62.2218 4.82722C62.2766 4.78041 62.3834 4.75314 62.459 4.76661C62.5378 4.78057 62.4953 4.81708 62.3599 4.8517C62.1932 4.89428 62.1519 4.88701 62.2218 4.82722ZM97.4666 2.52066C97.338 2.51054 97.23 2.47669 97.2266 2.44547C97.2166 2.35442 97.6669 2.37719 97.7217 2.47049C97.7491 2.5171 97.7552 2.5516 97.7362 2.54715C97.7167 2.54268 97.5953 2.53079 97.4666 2.52066ZM95.3236 2.47753C95.5949 2.37275 95.7566 2.36304 95.5793 2.46216C95.4993 2.50691 95.3645 2.54583 95.28 2.54864C95.1782 2.55203 95.1933 2.52781 95.3236 2.47753ZM95.9445 2.44722C95.9087 2.41201 95.9736 2.39519 96.0889 2.40984C96.3327 2.44092 96.3685 2.48965 96.1571 2.50238C96.076 2.50725 95.9803 2.48243 95.9445 2.44722ZM82.7465 3.07029C82.572 2.96226 82.6442 2.94971 83.9089 2.86818C84.6507 2.82034 85.3588 2.76066 85.4825 2.7355C85.6055 2.71033 85.7336 2.71641 85.7666 2.74899C85.7996 2.78157 85.9669 2.79267 86.1386 2.77365C86.6018 2.72224 86.6158 2.83042 86.1537 2.89067C85.9356 2.91915 85.7756 2.91537 85.7991 2.88236C85.8718 2.77849 85.7185 2.82462 85.5708 2.95084C85.4109 3.08787 84.9807 3.13663 84.8727 3.03001C84.8252 2.983 84.7368 2.98949 84.6093 3.04929C84.3922 3.15106 84.1724 3.10396 84.263 2.97518C84.3022 2.91886 84.2764 2.91528 84.1858 2.96453C84.1109 3.00536 83.7982 3.07177 83.4911 3.11212C83.0514 3.16984 82.8925 3.16096 82.7465 3.07029ZM90.9644 2.66439C90.9599 2.62348 90.9761 2.58878 91.0013 2.58729C91.0259 2.5858 91.0785 2.61635 91.1177 2.65518C91.1574 2.69401 91.1406 2.7287 91.0813 2.73229C91.0214 2.73587 90.9689 2.70532 90.9644 2.66439ZM86.8529 2.76151C86.7556 2.72372 86.7399 2.69523 86.8132 2.69015C86.8798 2.68545 86.967 2.71345 87.0062 2.75229C87.0951 2.83994 87.0599 2.84207 86.8529 2.76151ZM126.837 0.350139C126.883 0.284671 126.486 0.234827 126.413 0.296982C126.312 0.383582 125.858 0.426017 125.85 0.349675C125.845 0.302456 125.552 0.30857 125.053 0.366339C124.441 0.437166 124.181 0.43522 123.892 0.357679C123.688 0.302718 123.6 0.268434 123.697 0.281497C123.794 0.294559 123.884 0.275263 123.898 0.238671C123.912 0.20206 123.991 0.157075 124.074 0.138698C124.157 0.120338 124.255 0.069788 124.292 0.0263804C124.329 -0.0170256 124.368 0.0207435 124.378 0.110359C124.397 0.264344 124.413 0.266484 124.668 0.149463C124.91 0.0384163 124.953 0.0381678 125.094 0.147054C125.243 0.2625 125.247 0.262254 125.174 0.14225C125.115 0.0446329 125.154 0.0123685 125.345 0.000890699C125.481 -0.00728844 125.646 0.0417909 125.711 0.10995C125.777 0.178728 125.827 0.192412 125.823 0.140699C125.815 0.0430779 126.119 -0.012171 126.129 0.0848671C126.133 0.115556 126.484 0.117817 126.909 0.0898925C127.334 0.0619587 127.708 0.0647761 127.74 0.0961478C127.772 0.127511 127.897 0.147248 128.017 0.140009C128.193 0.129479 128.213 0.146987 128.119 0.22753C128.001 0.328338 126.77 0.446131 126.837 0.350139ZM128.518 0.246982C128.514 0.212879 128.545 0.180647 128.587 0.175347C128.629 0.170048 128.809 0.142849 128.988 0.114909C129.388 0.0520713 129.546 0.171046 129.163 0.246592C128.783 0.321279 128.526 0.321444 128.518 0.246982ZM121.119 0.441609C121.115 0.400693 120.938 0.377591 120.727 0.390271C120.516 0.402956 120.313 0.448841 120.276 0.492241C120.232 0.544853 120.206 0.546393 120.199 0.496865C120.186 0.403794 119.571 0.418577 119.581 0.51171C119.585 0.549173 119.545 0.563529 119.491 0.543617C119.389 0.505682 118.48 0.489449 117.52 0.508384C117.208 0.514515 116.953 0.512018 116.952 0.502824C116.946 0.45296 115.599 0.533075 115.519 0.588077C115.375 0.686248 114.358 0.809757 114.349 0.730142C114.345 0.692322 114.273 0.665532 114.188 0.670603C114.104 0.675675 114.038 0.712127 114.043 0.751622C114.048 0.796444 113.328 0.853486 112.127 0.903477C111.069 0.947519 110.093 0.99057 109.957 0.999157C109.821 1.00799 109.553 0.993132 109.361 0.966704C109.15 0.937815 109.014 0.945736 109.019 0.98655C109.026 1.05416 108.667 1.06471 108.562 0.999961C108.532 0.981285 108.066 1.0045 107.526 1.05156C106.875 1.10828 106.492 1.11064 106.39 1.05857C106.27 0.99737 106.238 1.0026 106.246 1.0822C106.252 1.14678 106.224 1.15745 106.171 1.1112C106.121 1.06727 105.535 1.06747 104.704 1.11173C103.944 1.15232 101.638 1.26728 99.5799 1.3673C97.522 1.46732 94.8823 1.6021 93.7132 1.66681C92.5441 1.73158 91.5853 1.76353 91.5825 1.73793C91.5791 1.71232 91.3235 1.70659 91.0142 1.72518C90.7043 1.74377 90.4542 1.78409 90.4576 1.81478C90.4609 1.84547 90.4151 1.8735 90.3552 1.87709C90.2954 1.88067 90.2713 1.84841 90.3015 1.8054C90.3323 1.76239 90.2847 1.73151 90.1969 1.73679C90.1096 1.74209 90.0336 1.71292 90.0291 1.67201C90.0246 1.63109 89.972 1.60054 89.9127 1.60412C89.8529 1.6077 89.8361 1.6424 89.8758 1.68123C89.9178 1.72293 89.8087 1.75969 89.6084 1.77103C89.3517 1.78548 89.3047 1.77045 89.4149 1.7089C89.5223 1.64881 89.5251 1.62937 89.425 1.63453C89.3209 1.63985 89.322 1.61374 89.4311 1.52069C89.5083 1.45424 89.6672 1.39414 89.7841 1.38714C89.9004 1.38014 89.9922 1.33867 89.9871 1.29499C89.9821 1.24788 90.0694 1.23068 90.2014 1.2527C90.3519 1.27768 90.3988 1.26425 90.3457 1.21166C90.3021 1.16866 90.2937 1.13186 90.3267 1.12986C90.3603 1.12786 90.4302 1.19297 90.4822 1.27456L90.5773 1.4229L90.8301 1.25236C91.0035 1.13546 91.1081 1.10679 91.163 1.1612C91.22 1.21749 91.2653 1.20972 91.3185 1.13449C91.3789 1.04827 92.0792 0.987696 95.0568 0.811161C97.0717 0.691731 99.5525 0.565631 100.569 0.531059C101.585 0.496487 103.271 0.436431 104.316 0.397605C108.086 0.257392 109.059 0.230335 109.148 0.263129C109.345 0.336407 110.179 0.3619 110.297 0.298296C110.37 0.259104 110.461 0.266061 110.513 0.314804C110.58 0.37771 110.625 0.369242 110.691 0.281447C110.74 0.216739 110.784 0.197227 110.789 0.238092C110.796 0.284983 111.432 0.271087 112.513 0.200433C114.222 0.0887608 117.157 0.0333838 117.166 0.11265C117.169 0.13563 117.528 0.129223 117.963 0.0984297C118.71 0.0456439 120.444 0.0440272 120.758 0.0958324C120.873 0.114947 120.878 0.142632 120.784 0.239636C120.69 0.337393 120.694 0.352086 120.807 0.318516C120.884 0.295836 121.072 0.249035 121.227 0.214521C121.4 0.175854 121.481 0.118271 121.438 0.0645043C121.4 0.0165102 121.428 0.0264276 121.501 0.0865232C121.608 0.174909 121.741 0.17856 122.196 0.105614C122.516 0.0543191 122.839 0.0408748 122.945 0.074443C123.048 0.106916 123.263 0.130247 123.422 0.126298C123.689 0.119678 123.692 0.122958 123.468 0.167773C123.28 0.205422 123.259 0.229505 123.377 0.274245C123.543 0.337549 123.411 0.35466 121.971 0.456421C121.468 0.491896 121.124 0.485922 121.119 0.441609ZM91.2911 1.55922C91.2519 1.50001 91.1809 1.47257 91.1328 1.49824C90.9957 1.57184 91.0461 1.68583 91.2116 1.67589C91.3028 1.67041 91.3341 1.6246 91.2911 1.55922ZM85.3482 2.1721C85.4377 2.0227 85.4299 2.00683 85.2895 2.05594C85.1496 2.10493 85.1412 2.08903 85.2296 1.94137L85.332 1.76991L85.4522 1.92967C85.5904 2.11296 85.8047 2.12793 85.8729 1.95903C85.8986 1.89571 85.8824 1.84611 85.8377 1.84883C85.7924 1.85154 85.7498 1.80313 85.7426 1.74124C85.7325 1.64977 85.8237 1.63209 86.2303 1.64671C86.5721 1.659 86.7276 1.63809 86.7209 1.58072C86.7159 1.53407 86.8736 1.48701 87.0761 1.47485C87.315 1.46051 87.4196 1.4826 87.3799 1.53898C87.3374 1.60011 87.3788 1.5971 87.5253 1.52854C87.6959 1.44841 87.7228 1.45187 87.6836 1.54901C87.6573 1.61331 87.5952 1.66839 87.5449 1.67141C87.4946 1.67443 87.4571 1.71038 87.4615 1.7513C87.4789 1.90638 87.654 1.80564 87.7524 1.58406C87.8665 1.32564 87.8705 1.32404 88.1378 1.40844C88.2732 1.45102 88.3219 1.52724 88.3017 1.66388C88.2855 1.77099 88.3118 1.84645 88.3594 1.83156C88.4075 1.81668 88.4735 1.83582 88.5059 1.87413C88.5411 1.91532 88.3017 1.96479 87.9197 1.99523C87.3295 2.04228 87.263 2.03196 87.1427 1.87508C87.0129 1.70593 86.6258 1.65157 86.6432 1.80487C86.6482 1.84821 86.6952 1.86047 86.7478 1.83213C86.802 1.80305 86.8239 1.83042 86.7981 1.89487C86.7713 1.96165 86.6823 1.99443 86.585 1.97373C86.4765 1.95071 86.4468 1.96649 86.4994 2.01884C86.5928 2.11074 86.2606 2.20267 85.8623 2.19525C85.7202 2.19261 85.5233 2.22525 85.4243 2.26779C85.2637 2.3371 85.2559 2.32716 85.3482 2.1721ZM88.1177 1.72437C88.1429 1.68853 88.0987 1.66311 88.0192 1.66788C87.9398 1.67266 87.9012 1.70304 87.9342 1.7354C87.9672 1.76775 88.0114 1.79318 88.0332 1.79188C88.0545 1.79059 88.0925 1.76021 88.1177 1.72437ZM83.971 2.26901C83.9363 2.2346 83.9973 2.18349 84.1075 2.15542C84.2401 2.12143 84.2815 2.06608 84.2311 1.98968C84.1897 1.92657 84.1987 1.87234 84.2518 1.86916C84.3922 1.86073 84.3967 2.10512 84.258 2.22365C84.1176 2.34387 84.0566 2.35351 83.971 2.26901ZM84.5757 2.02446C84.5986 1.96817 84.63 1.92132 84.6462 1.92036C84.6624 1.91939 84.7044 1.96182 84.739 2.01465C84.7737 2.06749 84.7424 2.11433 84.6686 2.11876C84.5947 2.12319 84.5528 2.08075 84.5757 2.02446ZM84.9471 1.79232C85.0501 1.72568 85.2347 1.66403 85.3577 1.65532C85.6016 1.63803 85.77 1.74155 85.6245 1.81946C85.5748 1.84614 85.5121 1.83058 85.4853 1.78481C85.4489 1.7223 85.3846 1.72602 85.2274 1.79962C84.9264 1.94092 84.7267 1.93576 84.9471 1.79232ZM83.5856 1.86389C83.6169 1.83713 83.7053 1.82918 83.7814 1.84625C83.8658 1.86509 83.8435 1.88418 83.7243 1.8949C83.6169 1.90461 83.5548 1.89066 83.5856 1.86389ZM88.9808 1.51027C88.8427 1.45652 88.8449 1.44564 88.9982 1.43547C89.0966 1.42888 89.1811 1.45705 89.1856 1.49798C89.1956 1.58872 89.1839 1.58941 88.9808 1.51027ZM88.4181 1.42997C88.3593 1.34044 88.3845 1.3325 88.5568 1.38683C88.8046 1.46487 88.8331 1.51912 88.6334 1.53113C88.5551 1.53584 88.4584 1.49032 88.4181 1.42997Z" fill="#E88F74"/>
</svg>
