<svg width="48" height="48" viewBox="0 0 48 48" fill="none" xmlns="http://www.w3.org/2000/svg">
<circle cx="24" cy="24" r="23.75" fill="white" stroke="#E88F74" stroke-width="0.5" stroke-dasharray="5 5"/>
<path d="M23.9987 32.3337C23.9987 32.3337 17.332 27.3337 17.332 22.3337C17.332 18.167 20.6654 15.667 23.9987 15.667C27.332 15.667 30.6654 18.167 30.6654 22.3337C30.6654 27.3337 23.9987 32.3337 23.9987 32.3337ZM23.9987 24.8337C24.6617 24.8337 25.2976 24.5703 25.7665 24.1014C26.2353 23.6326 26.4987 22.9967 26.4987 22.3337C26.4987 21.6706 26.2353 21.0347 25.7665 20.5659C25.2976 20.0971 24.6617 19.8337 23.9987 19.8337C23.3357 19.8337 22.6998 20.0971 22.2309 20.5659C21.7621 21.0347 21.4987 21.6706 21.4987 22.3337C21.4987 22.9967 21.7621 23.6326 22.2309 24.1014C22.6998 24.5703 23.3357 24.8337 23.9987 24.8337Z" fill="#E88F74" stroke="#E88F74"/>
</svg>
