<svg width="39" height="39" viewBox="0 0 39 39" fill="none" xmlns="http://www.w3.org/2000/svg">
<path d="M34.125 16.25C34.125 27.625 19.5 37.375 19.5 37.375C19.5 37.375 4.875 27.625 4.875 16.25C4.875 12.3712 6.41584 8.65128 9.15856 5.90856C11.9013 3.16584 15.6212 1.625 19.5 1.625C23.3788 1.625 27.0987 3.16584 29.8414 5.90856C32.5842 8.65128 34.125 12.3712 34.125 16.25Z" fill="white" stroke="#E88F74" stroke-width="3" stroke-linecap="round" stroke-linejoin="round"/>
<path d="M19.5 21.125C22.1924 21.125 24.375 18.9424 24.375 16.25C24.375 13.5576 22.1924 11.375 19.5 11.375C16.8076 11.375 14.625 13.5576 14.625 16.25C14.625 18.9424 16.8076 21.125 19.5 21.125Z" stroke="#E88F74" stroke-width="3" stroke-linecap="round" stroke-linejoin="round"/>
</svg>
