<svg width="39" height="42" viewBox="0 0 39 42" fill="none" xmlns="http://www.w3.org/2000/svg">
<path d="M39 23.2742C39 21.5265 38.9238 19.9562 38.7715 18.5631C38.4922 16.1315 37.8003 13.8583 36.6958 11.7433C35.5913 9.62837 34.2012 7.81736 32.5254 6.3103C30.8496 4.80325 28.8945 3.61913 26.6602 2.75795C24.4258 1.89677 22.0771 1.46619 19.6143 1.46619C16.1865 1.46619 13.0254 2.27671 10.1309 3.89774C7.23633 5.51878 4.90039 7.75404 3.12305 10.6035C1.3457 13.453 0.368164 16.6128 0.19043 20.0828C0.139648 21.3239 0.101562 22.2737 0.0761719 22.9323V23.5022C0.0761719 23.5782 0.0698242 23.6541 0.0571289 23.7301L0.019043 23.9581L0 24.186V32.3546C0 33.2411 0.317383 34.0009 0.952148 34.6341C1.58691 35.2674 2.34863 35.584 3.2373 35.584H6.5127C7.42676 35.584 8.19482 35.2674 8.81689 34.6341C9.43896 34.0009 9.75 33.2411 9.75 32.3546V24.186C9.75 23.6035 9.61035 23.0653 9.33105 22.5713C9.05176 22.0774 8.66455 21.6848 8.16943 21.3936C7.67432 21.1023 7.12207 20.9566 6.5127 20.9566H3.2373C3.00879 20.9566 2.79297 20.982 2.58984 21.0326V20.7477L2.60889 20.5197L2.62793 20.3298V20.2348C2.78027 17.17 3.63086 14.3902 5.17969 11.8953C6.72852 9.40041 8.77246 7.44376 11.3115 6.02536C13.8506 4.60695 16.6182 3.89774 19.6143 3.89774C23.9814 3.89774 27.7393 5.30982 30.8877 8.13397C34.0361 10.9581 35.8516 14.5231 36.334 18.829C36.3594 19.0063 36.3848 19.2976 36.4102 19.7029C36.4355 20.1081 36.4609 20.5514 36.4863 21.0326C36.2324 20.982 35.9912 20.9566 35.7627 20.9566H32.5254C31.6113 20.9566 30.8433 21.2732 30.2212 21.9065C29.5991 22.5397 29.2881 23.2995 29.2881 24.186V32.3166C29.2881 32.8991 29.4404 33.4437 29.7451 33.9503C30.0498 34.4568 30.4688 34.8494 31.002 35.1281L23.1562 38.2055V38.0155C23.1562 37.7876 23.1055 37.5786 23.0039 37.3886C22.9023 37.1987 22.7563 37.053 22.5659 36.9517C22.3755 36.8504 22.166 36.7997 21.9375 36.7997H18.2812C17.9512 36.7997 17.6655 36.9137 17.4243 37.1417C17.1831 37.3696 17.0625 37.6609 17.0625 38.0155V39.2313C17.0625 39.5606 17.1831 39.8455 17.4243 40.0862C17.6655 40.3268 17.9512 40.4471 18.2812 40.4471H21.9756L24.1465 40.4091L36.7148 35.508L36.8672 35.432L37.0005 35.337L37.1338 35.204C37.6924 34.9508 38.1431 34.5645 38.4858 34.0452C38.8286 33.526 39 32.9498 39 32.3166V24.186C39 24.0087 38.9746 23.8188 38.9238 23.6161C38.9746 23.4895 39 23.3755 39 23.2742ZM3.2373 23.3882H6.5127C6.63965 23.3882 6.74756 23.4072 6.83643 23.4452C6.92529 23.4832 7.00781 23.5402 7.08398 23.6161C7.16016 23.6921 7.21729 23.7808 7.25537 23.8821C7.29346 23.9834 7.3125 24.0847 7.3125 24.186V32.3546C7.3125 32.5572 7.23633 32.7408 7.08398 32.9055C6.93164 33.0701 6.74121 33.1524 6.5127 33.1524H3.2373C3.00879 33.1524 2.81836 33.0701 2.66602 32.9055C2.51367 32.7408 2.4375 32.5572 2.4375 32.3546V24.186C2.4375 24.0847 2.45654 23.9834 2.49463 23.8821C2.53271 23.7808 2.58984 23.6921 2.66602 23.6161C2.74219 23.5402 2.83105 23.4832 2.93262 23.4452C3.03418 23.4072 3.13574 23.3882 3.2373 23.3882ZM31.7256 24.186C31.7256 24.1101 31.7383 24.0277 31.7637 23.9391C31.7891 23.8504 31.8271 23.7745 31.8779 23.7111C31.9287 23.6478 31.9858 23.5908 32.0493 23.5402C32.1128 23.4895 32.1826 23.4515 32.2588 23.4262C32.335 23.4009 32.4238 23.3882 32.5254 23.3882H35.7627C35.915 23.3882 36.0483 23.4262 36.1626 23.5022C36.2769 23.5782 36.3721 23.6731 36.4482 23.7871C36.5244 23.9011 36.5625 24.0341 36.5625 24.186V32.3166C36.5625 32.4432 36.5244 32.5699 36.4482 32.6965C36.3721 32.8231 36.2769 32.9245 36.1626 33.0004C36.0483 33.0764 35.915 33.1144 35.7627 33.1144H32.5254C32.2969 33.1144 32.1064 33.0321 31.9541 32.8675C31.8018 32.7028 31.7256 32.5192 31.7256 32.3166V24.186Z" fill="white"/>
</svg>
