<svg width="100" height="100" viewBox="0 0 100 100" fill="none" xmlns="http://www.w3.org/2000/svg">
<path d="M62.5 75L37.5 50L62.5 25" stroke="#404D56" stroke-width="2" stroke-linecap="round" stroke-linejoin="round"/>
</svg>
